# This file uses centimeters as units for non-parametric coordinates.

v 0.244791 0.000000 0.101996
v 0.075645 -0.232810 0.101996
v -0.198040 -0.143884 0.101996
v -0.198040 0.143884 0.101996
v 0.075645 0.232810 0.101996
v 0.244791 0.000000 -0.101996
v 0.075645 -0.232810 -0.101996
v -0.198040 -0.143884 -0.101996
v -0.198040 0.143884 -0.101996
v 0.075645 0.232810 -0.101996
v 0.407985 0.000000 -0.101996
v 0.126074 -0.388016 -0.101996
v -0.330067 -0.239807 -0.101996
v -0.330067 0.239807 -0.101996
v 0.126074 0.388017 -0.101996
v 0.407985 0.000000 0.101996
v 0.126074 -0.388016 0.101996
v -0.330067 -0.239807 0.101996
v -0.330067 0.239807 0.101996
v 0.126074 0.388017 0.101996
vt 0.000000 1.000000
vt 0.200000 1.000000
vt 0.400000 1.000000
vt 0.600000 1.000000
vt 0.800000 1.000000
vt 1.000000 1.000000
vt 0.000000 0.750000
vt 0.200000 0.750000
vt 0.400000 0.750000
vt 0.600000 0.750000
vt 0.800000 0.750000
vt 1.000000 0.750000
vt 0.000000 0.500000
vt 0.200000 0.500000
vt 0.400000 0.500000
vt 0.600000 0.500000
vt 0.800000 0.500000
vt 1.000000 0.500000
vt 0.000000 0.250000
vt 0.200000 0.250000
vt 0.400000 0.250000
vt 0.600000 0.250000
vt 0.800000 0.250000
vt 1.000000 0.250000
vt 0.000000 0.000000
vt 0.200000 0.000000
vt 0.400000 0.000000
vt 0.600000 0.000000
vt 0.800000 0.000000
vt 1.000000 0.000000
vn -0.809017 0.587785 0.000000
vn -0.809017 0.587785 0.000000
vn -0.809017 0.587785 0.000000
vn -0.809017 0.587785 0.000000
vn 0.309017 0.951057 0.000000
vn 0.309017 0.951057 0.000000
vn 0.309017 0.951057 0.000000
vn 0.309017 0.951057 0.000000
vn 1.000000 0.000000 0.000000
vn 1.000000 0.000000 0.000000
vn 1.000000 0.000000 0.000000
vn 1.000000 0.000000 0.000000
vn 0.309017 -0.951057 0.000000
vn 0.309017 -0.951057 0.000000
vn 0.309017 -0.951057 0.000000
vn 0.309017 -0.951057 0.000000
vn -0.809017 -0.587785 0.000000
vn -0.809017 -0.587785 0.000000
vn -0.809017 -0.587785 0.000000
vn -0.809017 -0.587785 0.000000
vn 0.000000 0.000000 -1.000000
vn 0.000000 -0.000000 -1.000000
vn 0.000000 -0.000000 -1.000000
vn 0.000000 0.000000 -1.000000
vn -0.000000 0.000000 -1.000000
vn -0.000000 0.000000 -1.000000
vn -0.000000 0.000000 -1.000000
vn -0.000000 0.000000 -1.000000
vn 0.000000 -0.000000 -1.000000
vn 0.000000 -0.000000 -1.000000
vn 0.809017 -0.587785 0.000000
vn 0.809017 -0.587785 0.000000
vn 0.809017 -0.587785 0.000000
vn 0.809017 -0.587785 0.000000
vn -0.309017 -0.951057 0.000000
vn -0.309017 -0.951057 0.000000
vn -0.309017 -0.951057 0.000000
vn -0.309017 -0.951057 0.000000
vn -1.000000 0.000000 0.000000
vn -1.000000 0.000000 0.000000
vn -1.000000 0.000000 0.000000
vn -1.000000 0.000000 0.000000
vn -0.309017 0.951057 0.000000
vn -0.309017 0.951057 0.000000
vn -0.309017 0.951057 0.000000
vn -0.309017 0.951057 0.000000
vn 0.809017 0.587785 0.000000
vn 0.809017 0.587785 0.000000
vn 0.809017 0.587785 0.000000
vn 0.809017 0.587785 0.000000
vn -0.000000 0.000000 1.000000
vn -0.000000 0.000000 1.000000
vn -0.000000 0.000000 1.000000
vn -0.000000 0.000000 1.000000
vn 0.000000 0.000000 1.000000
vn 0.000000 0.000000 1.000000
vn 0.000000 -0.000000 1.000000
vn 0.000000 -0.000000 1.000000
vn 0.000000 -0.000000 1.000000
vn 0.000000 -0.000000 1.000000
s off
g coin
f 2/2/1 1/1/2 6/7/3 7/8/4
f 3/3/5 2/2/6 7/8/7 8/9/8
f 4/4/9 3/3/10 8/9/11 9/10/12
f 5/5/13 4/4/14 9/10/15 10/11/16
f 1/6/17 5/5/18 10/11/19 6/12/20
s 1
f 7/8/21 6/7/22 11/13/23 12/14/24
f 8/9/25 7/8/21 12/14/24 13/15/26
f 9/10/27 8/9/25 13/15/26 14/16/28
f 10/11/29 9/10/27 14/16/28 15/17/30
f 6/12/22 10/11/29 15/17/30 11/18/23
s off
f 12/14/31 11/13/32 16/19/33 17/20/34
f 13/15/35 12/14/36 17/20/37 18/21/38
f 14/16/39 13/15/40 18/21/41 19/22/42
f 15/17/43 14/16/44 19/22/45 20/23/46
f 11/18/47 15/17/48 20/23/49 16/24/50
s 2
f 17/20/51 16/19/52 1/25/53 2/26/54
f 18/21/55 17/20/51 2/26/54 3/27/56
f 19/22/57 18/21/55 3/27/56 4/28/58
f 20/23/59 19/22/57 4/28/58 5/29/60
f 16/24/52 20/23/59 5/29/60 1/30/53
