{
  "project_info": {
    "project_number": "863853426470",
    "firebase_url": "https://alpharunner-1fe0c.firebaseio.com",
    "project_id": "alpharunner-1fe0c",
    "storage_bucket": "alpharunner-1fe0c.appspot.com"
  },
  "client": [
    {
      "client_info": {
        "mobilesdk_app_id": "1:863853426470:android:5612f9b1887e5dba",
        "android_client_info": {
          "package_name": "com.toastergames.alpharunner"
        }
      },
      "oauth_client": [
        {
          "client_id": "863853426470-g3ccjclu23emre085ff3gbc7a35imo9v.apps.googleusercontent.com",
          "client_type": 3
        }
      ],
      "api_key": [
        {
          "current_key": "AIzaSyAYCGMPqU43JQEN_ODNugqpB0w2xKrXbmk"
        }
      ],
      "services": {
        "analytics_service": {
          "status": 1
        },
        "appinvite_service": {
          "status": 1,
          "other_platform_oauth_client": []
        },
        "ads_service": {
          "status": 2
        }
      }
    }
  ],
  "configuration_version": "1"
}