%YAML 1.1
%TAG !u! tag:unity3d.com,2011:
--- !u!1001 &100100000
Prefab:
  m_ObjectHideFlags: 1
  serializedVersion: 2
  m_Modification:
    m_TransformParent: {fileID: 0}
    m_Modifications: []
    m_RemovedComponents: []
  m_ParentPrefab: {fileID: 0}
  m_RootGameObject: {fileID: 1000010779222936}
  m_IsPrefabParent: 1
--- !u!1 &1000010113728350
GameObject:
  m_ObjectHideFlags: 1
  m_PrefabParentObject: {fileID: 0}
  m_PrefabInternal: {fileID: 100100000}
  serializedVersion: 5
  m_Component:
  - component: {fileID: 4000010015275338}
  m_Layer: 0
  m_Name: FrontLowerLeg_R
  m_TagString: Untagged
  m_Icon: {fileID: 0}
  m_NavMeshLayer: 0
  m_StaticEditorFlags: 0
  m_IsActive: 1
--- !u!1 &1000010198449654
GameObject:
  m_ObjectHideFlags: 1
  m_PrefabParentObject: {fileID: 0}
  m_PrefabInternal: {fileID: 100100000}
  serializedVersion: 5
  m_Component:
  - component: {fileID: 4000014003201614}
  m_Layer: 0
  m_Name: Tail
  m_TagString: Untagged
  m_Icon: {fileID: 0}
  m_NavMeshLayer: 0
  m_StaticEditorFlags: 0
  m_IsActive: 1
--- !u!1 &1000010209040650
GameObject:
  m_ObjectHideFlags: 1
  m_PrefabParentObject: {fileID: 0}
  m_PrefabInternal: {fileID: 100100000}
  serializedVersion: 5
  m_Component:
  - component: {fileID: 4000010600046610}
  m_Layer: 0
  m_Name: FrontUpperLeg_R
  m_TagString: Untagged
  m_Icon: {fileID: 0}
  m_NavMeshLayer: 0
  m_StaticEditorFlags: 0
  m_IsActive: 1
--- !u!1 &1000010262271864
GameObject:
  m_ObjectHideFlags: 0
  m_PrefabParentObject: {fileID: 0}
  m_PrefabInternal: {fileID: 100100000}
  serializedVersion: 5
  m_Component:
  - component: {fileID: 4000012759889120}
  m_Layer: 0
  m_Name: CowArmature
  m_TagString: Untagged
  m_Icon: {fileID: 0}
  m_NavMeshLayer: 0
  m_StaticEditorFlags: 0
  m_IsActive: 1
--- !u!1 &1000010322481322
GameObject:
  m_ObjectHideFlags: 1
  m_PrefabParentObject: {fileID: 0}
  m_PrefabInternal: {fileID: 100100000}
  serializedVersion: 5
  m_Component:
  - component: {fileID: 4000013237189676}
  m_Layer: 0
  m_Name: Root
  m_TagString: Untagged
  m_Icon: {fileID: 0}
  m_NavMeshLayer: 0
  m_StaticEditorFlags: 0
  m_IsActive: 1
--- !u!1 &1000010348554260
GameObject:
  m_ObjectHideFlags: 1
  m_PrefabParentObject: {fileID: 0}
  m_PrefabInternal: {fileID: 100100000}
  serializedVersion: 5
  m_Component:
  - component: {fileID: 4000010409335266}
  m_Layer: 0
  m_Name: Pole_R
  m_TagString: Untagged
  m_Icon: {fileID: 0}
  m_NavMeshLayer: 0
  m_StaticEditorFlags: 0
  m_IsActive: 1
--- !u!1 &1000010439243510
GameObject:
  m_ObjectHideFlags: 1
  m_PrefabParentObject: {fileID: 0}
  m_PrefabInternal: {fileID: 100100000}
  serializedVersion: 5
  m_Component:
  - component: {fileID: 4000011122365712}
  m_Layer: 0
  m_Name: BackFootIK_L
  m_TagString: Untagged
  m_Icon: {fileID: 0}
  m_NavMeshLayer: 0
  m_StaticEditorFlags: 0
  m_IsActive: 1
--- !u!1 &1000010623399464
GameObject:
  m_ObjectHideFlags: 1
  m_PrefabParentObject: {fileID: 0}
  m_PrefabInternal: {fileID: 100100000}
  serializedVersion: 5
  m_Component:
  - component: {fileID: 4000013336623186}
  m_Layer: 0
  m_Name: FrontFoot_L
  m_TagString: Untagged
  m_Icon: {fileID: 0}
  m_NavMeshLayer: 0
  m_StaticEditorFlags: 0
  m_IsActive: 1
--- !u!1 &1000010639609864
GameObject:
  m_ObjectHideFlags: 1
  m_PrefabParentObject: {fileID: 0}
  m_PrefabInternal: {fileID: 100100000}
  serializedVersion: 5
  m_Component:
  - component: {fileID: 4000014214237698}
  m_Layer: 0
  m_Name: BackLowerLeg_R
  m_TagString: Untagged
  m_Icon: {fileID: 0}
  m_NavMeshLayer: 0
  m_StaticEditorFlags: 0
  m_IsActive: 1
--- !u!1 &1000010779222936
GameObject:
  m_ObjectHideFlags: 0
  m_PrefabParentObject: {fileID: 0}
  m_PrefabInternal: {fileID: 100100000}
  serializedVersion: 5
  m_Component:
  - component: {fileID: 4000011287942062}
  - component: {fileID: 95000011194647896}
  - component: {fileID: 114000013706976594}
  m_Layer: 0
  m_Name: cow2_A
  m_TagString: Untagged
  m_Icon: {fileID: 0}
  m_NavMeshLayer: 0
  m_StaticEditorFlags: 0
  m_IsActive: 1
--- !u!1 &1000011129375190
GameObject:
  m_ObjectHideFlags: 1
  m_PrefabParentObject: {fileID: 0}
  m_PrefabInternal: {fileID: 100100000}
  serializedVersion: 5
  m_Component:
  - component: {fileID: 4000010255200770}
  m_Layer: 0
  m_Name: Ear_L
  m_TagString: Untagged
  m_Icon: {fileID: 0}
  m_NavMeshLayer: 0
  m_StaticEditorFlags: 0
  m_IsActive: 1
--- !u!1 &1000011320743426
GameObject:
  m_ObjectHideFlags: 1
  m_PrefabParentObject: {fileID: 0}
  m_PrefabInternal: {fileID: 100100000}
  serializedVersion: 5
  m_Component:
  - component: {fileID: 4000013030986176}
  m_Layer: 0
  m_Name: FrontFoot_R
  m_TagString: Untagged
  m_Icon: {fileID: 0}
  m_NavMeshLayer: 0
  m_StaticEditorFlags: 0
  m_IsActive: 1
--- !u!1 &1000011326053086
GameObject:
  m_ObjectHideFlags: 1
  m_PrefabParentObject: {fileID: 0}
  m_PrefabInternal: {fileID: 100100000}
  serializedVersion: 5
  m_Component:
  - component: {fileID: 4000010144386220}
  m_Layer: 0
  m_Name: BackLowerLeg_L
  m_TagString: Untagged
  m_Icon: {fileID: 0}
  m_NavMeshLayer: 0
  m_StaticEditorFlags: 0
  m_IsActive: 1
--- !u!1 &1000011327781210
GameObject:
  m_ObjectHideFlags: 1
  m_PrefabParentObject: {fileID: 0}
  m_PrefabInternal: {fileID: 100100000}
  serializedVersion: 5
  m_Component:
  - component: {fileID: 4000011942205596}
  m_Layer: 0
  m_Name: FrontUpperLeg_L
  m_TagString: Untagged
  m_Icon: {fileID: 0}
  m_NavMeshLayer: 0
  m_StaticEditorFlags: 0
  m_IsActive: 1
--- !u!1 &1000011679672676
GameObject:
  m_ObjectHideFlags: 1
  m_PrefabParentObject: {fileID: 0}
  m_PrefabInternal: {fileID: 100100000}
  serializedVersion: 5
  m_Component:
  - component: {fileID: 4000011867897190}
  m_Layer: 0
  m_Name: Ear_R
  m_TagString: Untagged
  m_Icon: {fileID: 0}
  m_NavMeshLayer: 0
  m_StaticEditorFlags: 0
  m_IsActive: 1
--- !u!1 &1000011750931310
GameObject:
  m_ObjectHideFlags: 1
  m_PrefabParentObject: {fileID: 0}
  m_PrefabInternal: {fileID: 100100000}
  serializedVersion: 5
  m_Component:
  - component: {fileID: 4000011801652342}
  m_Layer: 0
  m_Name: BackFoot_L
  m_TagString: Untagged
  m_Icon: {fileID: 0}
  m_NavMeshLayer: 0
  m_StaticEditorFlags: 0
  m_IsActive: 1
--- !u!1 &1000011990553648
GameObject:
  m_ObjectHideFlags: 1
  m_PrefabParentObject: {fileID: 0}
  m_PrefabInternal: {fileID: 100100000}
  serializedVersion: 5
  m_Component:
  - component: {fileID: 4000012064881248}
  m_Layer: 0
  m_Name: Pole_L
  m_TagString: Untagged
  m_Icon: {fileID: 0}
  m_NavMeshLayer: 0
  m_StaticEditorFlags: 0
  m_IsActive: 1
--- !u!1 &1000012212131212
GameObject:
  m_ObjectHideFlags: 1
  m_PrefabParentObject: {fileID: 0}
  m_PrefabInternal: {fileID: 100100000}
  serializedVersion: 5
  m_Component:
  - component: {fileID: 4000011445353032}
  m_Layer: 0
  m_Name: FrontLowerLeg_L
  m_TagString: Untagged
  m_Icon: {fileID: 0}
  m_NavMeshLayer: 0
  m_StaticEditorFlags: 0
  m_IsActive: 1
--- !u!1 &1000012352543598
GameObject:
  m_ObjectHideFlags: 1
  m_PrefabParentObject: {fileID: 0}
  m_PrefabInternal: {fileID: 100100000}
  serializedVersion: 5
  m_Component:
  - component: {fileID: 4000011333555992}
  m_Layer: 0
  m_Name: BackFoot_R
  m_TagString: Untagged
  m_Icon: {fileID: 0}
  m_NavMeshLayer: 0
  m_StaticEditorFlags: 0
  m_IsActive: 1
--- !u!1 &1000012460670376
GameObject:
  m_ObjectHideFlags: 1
  m_PrefabParentObject: {fileID: 0}
  m_PrefabInternal: {fileID: 100100000}
  serializedVersion: 5
  m_Component:
  - component: {fileID: 4000013397893662}
  m_Layer: 0
  m_Name: BackFootIK_R
  m_TagString: Untagged
  m_Icon: {fileID: 0}
  m_NavMeshLayer: 0
  m_StaticEditorFlags: 0
  m_IsActive: 1
--- !u!1 &1000012558812766
GameObject:
  m_ObjectHideFlags: 1
  m_PrefabParentObject: {fileID: 0}
  m_PrefabInternal: {fileID: 100100000}
  serializedVersion: 5
  m_Component:
  - component: {fileID: 4000010574729766}
  m_Layer: 0
  m_Name: PoleBack_R
  m_TagString: Untagged
  m_Icon: {fileID: 0}
  m_NavMeshLayer: 0
  m_StaticEditorFlags: 0
  m_IsActive: 1
--- !u!1 &1000012571240282
GameObject:
  m_ObjectHideFlags: 1
  m_PrefabParentObject: {fileID: 0}
  m_PrefabInternal: {fileID: 100100000}
  serializedVersion: 5
  m_Component:
  - component: {fileID: 4000013598939078}
  m_Layer: 0
  m_Name: FrontFootIK_L
  m_TagString: Untagged
  m_Icon: {fileID: 0}
  m_NavMeshLayer: 0
  m_StaticEditorFlags: 0
  m_IsActive: 1
--- !u!1 &1000012693590022
GameObject:
  m_ObjectHideFlags: 1
  m_PrefabParentObject: {fileID: 0}
  m_PrefabInternal: {fileID: 100100000}
  serializedVersion: 5
  m_Component:
  - component: {fileID: 4000012438323772}
  m_Layer: 0
  m_Name: Head
  m_TagString: Untagged
  m_Icon: {fileID: 0}
  m_NavMeshLayer: 0
  m_StaticEditorFlags: 0
  m_IsActive: 1
--- !u!1 &1000012846767048
GameObject:
  m_ObjectHideFlags: 1
  m_PrefabParentObject: {fileID: 0}
  m_PrefabInternal: {fileID: 100100000}
  serializedVersion: 5
  m_Component:
  - component: {fileID: 4000012490316720}
  m_Layer: 0
  m_Name: PoleBack_L
  m_TagString: Untagged
  m_Icon: {fileID: 0}
  m_NavMeshLayer: 0
  m_StaticEditorFlags: 0
  m_IsActive: 1
--- !u!1 &1000013176888076
GameObject:
  m_ObjectHideFlags: 0
  m_PrefabParentObject: {fileID: 0}
  m_PrefabInternal: {fileID: 100100000}
  serializedVersion: 5
  m_Component:
  - component: {fileID: 4000013210364956}
  - component: {fileID: 137000010165118374}
  m_Layer: 0
  m_Name: Cow2_A
  m_TagString: Untagged
  m_Icon: {fileID: 0}
  m_NavMeshLayer: 0
  m_StaticEditorFlags: 0
  m_IsActive: 1
--- !u!1 &1000013310046436
GameObject:
  m_ObjectHideFlags: 1
  m_PrefabParentObject: {fileID: 0}
  m_PrefabInternal: {fileID: 100100000}
  serializedVersion: 5
  m_Component:
  - component: {fileID: 4000013177752566}
  m_Layer: 0
  m_Name: Torso
  m_TagString: Untagged
  m_Icon: {fileID: 0}
  m_NavMeshLayer: 0
  m_StaticEditorFlags: 0
  m_IsActive: 1
--- !u!1 &1000013697446018
GameObject:
  m_ObjectHideFlags: 1
  m_PrefabParentObject: {fileID: 0}
  m_PrefabInternal: {fileID: 100100000}
  serializedVersion: 5
  m_Component:
  - component: {fileID: 4000010236362382}
  m_Layer: 0
  m_Name: BackUpperLeg_L
  m_TagString: Untagged
  m_Icon: {fileID: 0}
  m_NavMeshLayer: 0
  m_StaticEditorFlags: 0
  m_IsActive: 1
--- !u!1 &1000013726341238
GameObject:
  m_ObjectHideFlags: 1
  m_PrefabParentObject: {fileID: 0}
  m_PrefabInternal: {fileID: 100100000}
  serializedVersion: 5
  m_Component:
  - component: {fileID: 4000010734094444}
  m_Layer: 0
  m_Name: BackUpperLeg_R
  m_TagString: Untagged
  m_Icon: {fileID: 0}
  m_NavMeshLayer: 0
  m_StaticEditorFlags: 0
  m_IsActive: 1
--- !u!1 &1000014180881330
GameObject:
  m_ObjectHideFlags: 1
  m_PrefabParentObject: {fileID: 0}
  m_PrefabInternal: {fileID: 100100000}
  serializedVersion: 5
  m_Component:
  - component: {fileID: 4000010742274876}
  m_Layer: 0
  m_Name: "Tai\xC9nd"
  m_TagString: Untagged
  m_Icon: {fileID: 0}
  m_NavMeshLayer: 0
  m_StaticEditorFlags: 0
  m_IsActive: 1
--- !u!1 &1000014185206436
GameObject:
  m_ObjectHideFlags: 1
  m_PrefabParentObject: {fileID: 0}
  m_PrefabInternal: {fileID: 100100000}
  serializedVersion: 5
  m_Component:
  - component: {fileID: 4000013361925832}
  m_Layer: 0
  m_Name: Spine
  m_TagString: Untagged
  m_Icon: {fileID: 0}
  m_NavMeshLayer: 0
  m_StaticEditorFlags: 0
  m_IsActive: 1
--- !u!1 &1000014238322436
GameObject:
  m_ObjectHideFlags: 1
  m_PrefabParentObject: {fileID: 0}
  m_PrefabInternal: {fileID: 100100000}
  serializedVersion: 5
  m_Component:
  - component: {fileID: 4000013987969650}
  m_Layer: 0
  m_Name: FrontFootIK_R
  m_TagString: Untagged
  m_Icon: {fileID: 0}
  m_NavMeshLayer: 0
  m_StaticEditorFlags: 0
  m_IsActive: 1
--- !u!4 &4000010015275338
Transform:
  m_ObjectHideFlags: 1
  m_PrefabParentObject: {fileID: 0}
  m_PrefabInternal: {fileID: 100100000}
  m_GameObject: {fileID: 1000010113728350}
  m_LocalRotation: {x: -0.14615016, y: 0.0013400585, z: -0.016063074, w: 0.9891311}
  m_LocalPosition: {x: -0.00000001862645, y: 0.5031872, z: -0.0000000095460555}
  m_LocalScale: {x: 0.99999994, y: 1.0000002, z: 1}
  m_Children:
  - {fileID: 4000013030986176}
  m_Father: {fileID: 4000010600046610}
  m_RootOrder: 0
  m_LocalEulerAnglesHint: {x: 0, y: 0, z: 0}
--- !u!4 &4000010144386220
Transform:
  m_ObjectHideFlags: 1
  m_PrefabParentObject: {fileID: 0}
  m_PrefabInternal: {fileID: 100100000}
  m_GameObject: {fileID: 1000011326053086}
  m_LocalRotation: {x: 0.06824004, y: 0.021446973, z: 0.003187295, w: 0.9974333}
  m_LocalPosition: {x: 0.00000001862645, y: 0.5042278, z: -0.000000032130625}
  m_LocalScale: {x: 1, y: 1.0000001, z: 1}
  m_Children:
  - {fileID: 4000011801652342}
  m_Father: {fileID: 4000010236362382}
  m_RootOrder: 0
  m_LocalEulerAnglesHint: {x: 0, y: 0, z: 0}
--- !u!4 &4000010236362382
Transform:
  m_ObjectHideFlags: 1
  m_PrefabParentObject: {fileID: 0}
  m_PrefabInternal: {fileID: 100100000}
  m_GameObject: {fileID: 1000013697446018}
  m_LocalRotation: {x: 0.07397768, y: 0.72043765, z: 0.68943924, w: -0.013057966}
  m_LocalPosition: {x: -0.690495, y: 0.58143395, z: 0.90466964}
  m_LocalScale: {x: 1, y: 0.99999994, z: 0.9999998}
  m_Children:
  - {fileID: 4000010144386220}
  m_Father: {fileID: 4000013237189676}
  m_RootOrder: 0
  m_LocalEulerAnglesHint: {x: 0, y: 0, z: 0}
--- !u!4 &4000010255200770
Transform:
  m_ObjectHideFlags: 1
  m_PrefabParentObject: {fileID: 0}
  m_PrefabInternal: {fileID: 100100000}
  m_GameObject: {fileID: 1000011129375190}
  m_LocalRotation: {x: -0.50932896, y: -0.18714644, z: -0.6160665, w: 0.5709836}
  m_LocalPosition: {x: 0.7998291, y: 1.1117289, z: 0.65902454}
  m_LocalScale: {x: 1.0000001, y: 1, z: 1}
  m_Children: []
  m_Father: {fileID: 4000012438323772}
  m_RootOrder: 0
  m_LocalEulerAnglesHint: {x: 0, y: 0, z: 0}
--- !u!4 &4000010409335266
Transform:
  m_ObjectHideFlags: 1
  m_PrefabParentObject: {fileID: 0}
  m_PrefabInternal: {fileID: 100100000}
  m_GameObject: {fileID: 1000010348554260}
  m_LocalRotation: {x: 0.8934972, y: -0.004569981, z: 0.44797933, w: -0.030925285}
  m_LocalPosition: {x: 0.6462158, y: 0.10223507, z: 0.3768036}
  m_LocalScale: {x: 1.0000091, y: 1, z: 1.0000883}
  m_Children: []
  m_Father: {fileID: 4000012759889120}
  m_RootOrder: 5
  m_LocalEulerAnglesHint: {x: 0, y: 0, z: 0}
--- !u!4 &4000010574729766
Transform:
  m_ObjectHideFlags: 1
  m_PrefabParentObject: {fileID: 0}
  m_PrefabInternal: {fileID: 100100000}
  m_GameObject: {fileID: 1000012558812766}
  m_LocalRotation: {x: 0.8934299, y: 0.019092493, z: 0.44840163, w: 0.018831236}
  m_LocalPosition: {x: 0.5773221, y: 0.35103568, z: 0.35649368}
  m_LocalScale: {x: 0.9999965, y: 0.99999994, z: 0.99996936}
  m_Children: []
  m_Father: {fileID: 4000012759889120}
  m_RootOrder: 7
  m_LocalEulerAnglesHint: {x: 0, y: 0, z: 0}
--- !u!4 &4000010600046610
Transform:
  m_ObjectHideFlags: 1
  m_PrefabParentObject: {fileID: 0}
  m_PrefabInternal: {fileID: 100100000}
  m_GameObject: {fileID: 1000010209040650}
  m_LocalRotation: {x: -0.6972696, y: 0.009721457, z: -0.08259033, w: 0.7119687}
  m_LocalPosition: {x: -0.59758353, y: 0.9531783, z: -0.9151354}
  m_LocalScale: {x: 0.9999997, y: 0.99997246, z: 0.9999998}
  m_Children:
  - {fileID: 4000010015275338}
  m_Father: {fileID: 4000013177752566}
  m_RootOrder: 1
  m_LocalEulerAnglesHint: {x: 0, y: 0, z: 0}
--- !u!4 &4000010734094444
Transform:
  m_ObjectHideFlags: 1
  m_PrefabParentObject: {fileID: 0}
  m_PrefabInternal: {fileID: 100100000}
  m_GameObject: {fileID: 1000013726341238}
  m_LocalRotation: {x: -0.07399737, y: 0.72043383, z: 0.6894407, w: 0.013076155}
  m_LocalPosition: {x: 0.6945801, y: 0.5814341, z: 0.90471125}
  m_LocalScale: {x: 1, y: 1.0000001, z: 1}
  m_Children:
  - {fileID: 4000014214237698}
  m_Father: {fileID: 4000013237189676}
  m_RootOrder: 1
  m_LocalEulerAnglesHint: {x: 0, y: 0, z: 0}
--- !u!4 &4000010742274876
Transform:
  m_ObjectHideFlags: 1
  m_PrefabParentObject: {fileID: 0}
  m_PrefabInternal: {fileID: 100100000}
  m_GameObject: {fileID: 1000014180881330}
  m_LocalRotation: {x: -0.3717222, y: 0.00000011012645, z: 0.000000044634305, w: 0.928344}
  m_LocalPosition: {x: 1.3301359e-11, y: 0.5197233, z: 4.885869e-10}
  m_LocalScale: {x: 1, y: 0.9999999, z: 0.9999999}
  m_Children: []
  m_Father: {fileID: 4000014003201614}
  m_RootOrder: 0
  m_LocalEulerAnglesHint: {x: 0, y: 0, z: 0}
--- !u!4 &4000011122365712
Transform:
  m_ObjectHideFlags: 1
  m_PrefabParentObject: {fileID: 0}
  m_PrefabInternal: {fileID: 100100000}
  m_GameObject: {fileID: 1000010439243510}
  m_LocalRotation: {x: 0.00011138025, y: -0.004348536, z: 0.999397, w: 0.03445044}
  m_LocalPosition: {x: -0.5742588, y: 0.819381, z: 0.03606684}
  m_LocalScale: {x: 1.0000136, y: 1, z: 1.0000002}
  m_Children: []
  m_Father: {fileID: 4000012759889120}
  m_RootOrder: 0
  m_LocalEulerAnglesHint: {x: 0, y: 0, z: 0}
--- !u!4 &4000011287942062
Transform:
  m_ObjectHideFlags: 1
  m_PrefabParentObject: {fileID: 0}
  m_PrefabInternal: {fileID: 100100000}
  m_GameObject: {fileID: 1000010779222936}
  m_LocalRotation: {x: 0, y: 0, z: 0, w: 1}
  m_LocalPosition: {x: 0, y: 0, z: 0}
  m_LocalScale: {x: 1, y: 1, z: 1}
  m_Children:
  - {fileID: 4000013210364956}
  - {fileID: 4000012759889120}
  m_Father: {fileID: 0}
  m_RootOrder: 0
  m_LocalEulerAnglesHint: {x: 0, y: 0, z: 0}
--- !u!4 &4000011333555992
Transform:
  m_ObjectHideFlags: 1
  m_PrefabParentObject: {fileID: 0}
  m_PrefabInternal: {fileID: 100100000}
  m_GameObject: {fileID: 1000012352543598}
  m_LocalRotation: {x: 0.66122454, y: 0.014540142, z: 0.08513573, w: 0.7451997}
  m_LocalPosition: {x: 0.000000013504176, y: 0.40114984, z: 0.000000013504176}
  m_LocalScale: {x: 0.9999998, y: 0.9999999, z: 0.9999997}
  m_Children: []
  m_Father: {fileID: 4000014214237698}
  m_RootOrder: 0
  m_LocalEulerAnglesHint: {x: 0, y: 0, z: 0}
--- !u!4 &4000011445353032
Transform:
  m_ObjectHideFlags: 1
  m_PrefabParentObject: {fileID: 0}
  m_PrefabInternal: {fileID: 100100000}
  m_GameObject: {fileID: 1000012212131212}
  m_LocalRotation: {x: -0.14614962, y: -0.0013400671, z: 0.016063066, w: 0.9891312}
  m_LocalPosition: {x: -0.00000005960464, y: 0.50318694, z: 0.00000010081566}
  m_LocalScale: {x: 0.99999994, y: 1, z: 0.99999994}
  m_Children:
  - {fileID: 4000013336623186}
  m_Father: {fileID: 4000011942205596}
  m_RootOrder: 0
  m_LocalEulerAnglesHint: {x: 0, y: 0, z: 0}
--- !u!4 &4000011801652342
Transform:
  m_ObjectHideFlags: 1
  m_PrefabParentObject: {fileID: 0}
  m_PrefabInternal: {fileID: 100100000}
  m_GameObject: {fileID: 1000011750931310}
  m_LocalRotation: {x: 0.6612266, y: -0.014539732, z: -0.08513566, w: 0.74519795}
  m_LocalPosition: {x: 0.000000034924593, y: 0.4011499, z: 0.00000007124617}
  m_LocalScale: {x: 0.9999999, y: 0.99999994, z: 0.99999994}
  m_Children: []
  m_Father: {fileID: 4000010144386220}
  m_RootOrder: 0
  m_LocalEulerAnglesHint: {x: 0, y: 0, z: 0}
--- !u!4 &4000011867897190
Transform:
  m_ObjectHideFlags: 1
  m_PrefabParentObject: {fileID: 0}
  m_PrefabInternal: {fileID: 100100000}
  m_GameObject: {fileID: 1000011679672676}
  m_LocalRotation: {x: -0.50932956, y: 0.18714604, z: 0.61606604, w: 0.57098377}
  m_LocalPosition: {x: -0.7998302, y: 1.1117288, z: 0.6590228}
  m_LocalScale: {x: 1.0000001, y: 1.0000001, z: 0.99999994}
  m_Children: []
  m_Father: {fileID: 4000012438323772}
  m_RootOrder: 1
  m_LocalEulerAnglesHint: {x: 0, y: 0, z: 0}
--- !u!4 &4000011942205596
Transform:
  m_ObjectHideFlags: 1
  m_PrefabParentObject: {fileID: 0}
  m_PrefabInternal: {fileID: 100100000}
  m_GameObject: {fileID: 1000011327781210}
  m_LocalRotation: {x: -0.69728225, y: -0.0091831535, z: 0.08196029, w: 0.71203625}
  m_LocalPosition: {x: 0.5971973, y: 0.9521872, z: -0.915068}
  m_LocalScale: {x: 0.99999964, y: 0.99997264, z: 0.99999976}
  m_Children:
  - {fileID: 4000011445353032}
  m_Father: {fileID: 4000013177752566}
  m_RootOrder: 0
  m_LocalEulerAnglesHint: {x: 0, y: 0, z: 0}
--- !u!4 &4000012064881248
Transform:
  m_ObjectHideFlags: 1
  m_PrefabParentObject: {fileID: 0}
  m_PrefabInternal: {fileID: 100100000}
  m_GameObject: {fileID: 1000011990553648}
  m_LocalRotation: {x: 0.8934972, y: 0.004569981, z: -0.44797933, w: -0.030925285}
  m_LocalPosition: {x: -0.6462158, y: 0.10223507, z: 0.3768036}
  m_LocalScale: {x: 1.0000091, y: 1, z: 1.0000883}
  m_Children: []
  m_Father: {fileID: 4000012759889120}
  m_RootOrder: 4
  m_LocalEulerAnglesHint: {x: 0, y: 0, z: 0}
--- !u!4 &4000012438323772
Transform:
  m_ObjectHideFlags: 1
  m_PrefabParentObject: {fileID: 0}
  m_PrefabInternal: {fileID: 100100000}
  m_GameObject: {fileID: 1000012693590022}
  m_LocalRotation: {x: 0.40250373, y: -0.00019233528, z: -0.0003681879, w: 0.91541827}
  m_LocalPosition: {x: -1.4555466e-11, y: 1.247505, z: -0.0000000037247985}
  m_LocalScale: {x: 1.0000001, y: 0.9999848, z: 0.9999873}
  m_Children:
  - {fileID: 4000010255200770}
  - {fileID: 4000011867897190}
  m_Father: {fileID: 4000013177752566}
  m_RootOrder: 2
  m_LocalEulerAnglesHint: {x: 0, y: 0, z: 0}
--- !u!4 &4000012490316720
Transform:
  m_ObjectHideFlags: 1
  m_PrefabParentObject: {fileID: 0}
  m_PrefabInternal: {fileID: 100100000}
  m_GameObject: {fileID: 1000012846767048}
  m_LocalRotation: {x: 0.8934299, y: -0.019092493, z: -0.44840163, w: 0.018831236}
  m_LocalPosition: {x: -0.5773221, y: 0.35103568, z: 0.35649368}
  m_LocalScale: {x: 0.9999965, y: 0.99999994, z: 0.99996936}
  m_Children: []
  m_Father: {fileID: 4000012759889120}
  m_RootOrder: 6
  m_LocalEulerAnglesHint: {x: 0, y: 0, z: 0}
--- !u!4 &4000012759889120
Transform:
  m_ObjectHideFlags: 1
  m_PrefabParentObject: {fileID: 0}
  m_PrefabInternal: {fileID: 100100000}
  m_GameObject: {fileID: 1000010262271864}
  m_LocalRotation: {x: -0.7071068, y: 0, z: -0, w: 0.7071067}
  m_LocalPosition: {x: -0, y: 0, z: 0}
  m_LocalScale: {x: 1, y: 1, z: 1}
  m_Children:
  - {fileID: 4000011122365712}
  - {fileID: 4000013397893662}
  - {fileID: 4000013598939078}
  - {fileID: 4000013987969650}
  - {fileID: 4000012064881248}
  - {fileID: 4000010409335266}
  - {fileID: 4000012490316720}
  - {fileID: 4000010574729766}
  - {fileID: 4000013237189676}
  m_Father: {fileID: 4000011287942062}
  m_RootOrder: 1
  m_LocalEulerAnglesHint: {x: 0, y: 0, z: 0}
--- !u!4 &4000013030986176
Transform:
  m_ObjectHideFlags: 1
  m_PrefabParentObject: {fileID: 0}
  m_PrefabInternal: {fileID: 100100000}
  m_GameObject: {fileID: 1000011320743426}
  m_LocalRotation: {x: 0.7889996, y: -0.0118510565, z: 0.092281245, w: 0.60730827}
  m_LocalPosition: {x: 0.000000024680046, y: 0.36671808, z: 0.00000009220093}
  m_LocalScale: {x: 0.9999998, y: 1, z: 1.0000001}
  m_Children: []
  m_Father: {fileID: 4000010015275338}
  m_RootOrder: 0
  m_LocalEulerAnglesHint: {x: 0, y: 0, z: 0}
--- !u!4 &4000013177752566
Transform:
  m_ObjectHideFlags: 1
  m_PrefabParentObject: {fileID: 0}
  m_PrefabInternal: {fileID: 100100000}
  m_GameObject: {fileID: 1000013310046436}
  m_LocalRotation: {x: -0.0074127526, y: 0.000011368659, z: -0.00024849284, w: 0.9999725}
  m_LocalPosition: {x: 1.4551914e-10, y: 0.7805891, z: 0.000000027990156}
  m_LocalScale: {x: 1, y: 1.0000001, z: 1}
  m_Children:
  - {fileID: 4000011942205596}
  - {fileID: 4000010600046610}
  - {fileID: 4000012438323772}
  m_Father: {fileID: 4000013361925832}
  m_RootOrder: 0
  m_LocalEulerAnglesHint: {x: 0, y: 0, z: 0}
--- !u!4 &4000013210364956
Transform:
  m_ObjectHideFlags: 1
  m_PrefabParentObject: {fileID: 0}
  m_PrefabInternal: {fileID: 100100000}
  m_GameObject: {fileID: 1000013176888076}
  m_LocalRotation: {x: 0, y: -0, z: -0, w: 1}
  m_LocalPosition: {x: -0, y: 0, z: 0}
  m_LocalScale: {x: 1, y: 1, z: 1}
  m_Children: []
  m_Father: {fileID: 4000011287942062}
  m_RootOrder: 0
  m_LocalEulerAnglesHint: {x: 0, y: 0, z: 0}
--- !u!4 &4000013237189676
Transform:
  m_ObjectHideFlags: 1
  m_PrefabParentObject: {fileID: 0}
  m_PrefabInternal: {fileID: 100100000}
  m_GameObject: {fileID: 1000010322481322}
  m_LocalRotation: {x: 0.9995155, y: -0.0000004675751, z: 0.000015013716, w: -0.031126913}
  m_LocalPosition: {x: -0.0020697548, y: 1.3766826, z: 1.8701267}
  m_LocalScale: {x: 1, y: 1, z: 1.0000275}
  m_Children:
  - {fileID: 4000010236362382}
  - {fileID: 4000010734094444}
  - {fileID: 4000013361925832}
  - {fileID: 4000014003201614}
  m_Father: {fileID: 4000012759889120}
  m_RootOrder: 8
  m_LocalEulerAnglesHint: {x: 0, y: 0, z: 0}
--- !u!4 &4000013336623186
Transform:
  m_ObjectHideFlags: 1
  m_PrefabParentObject: {fileID: 0}
  m_PrefabInternal: {fileID: 100100000}
  m_GameObject: {fileID: 1000010623399464}
  m_LocalRotation: {x: 0.7889995, y: 0.011851034, z: -0.092281155, w: 0.60730845}
  m_LocalPosition: {x: 0.00000009220093, y: 0.36671802, z: -0.000000027008353}
  m_LocalScale: {x: 0.9999999, y: 0.99999994, z: 1.0000001}
  m_Children: []
  m_Father: {fileID: 4000011445353032}
  m_RootOrder: 0
  m_LocalEulerAnglesHint: {x: 0, y: 0, z: 0}
--- !u!4 &4000013361925832
Transform:
  m_ObjectHideFlags: 1
  m_PrefabParentObject: {fileID: 0}
  m_PrefabInternal: {fileID: 100100000}
  m_GameObject: {fileID: 1000014185206436}
  m_LocalRotation: {x: 0.00066359463, y: 0.9997614, z: -0.021834102, w: 0.000004780342}
  m_LocalPosition: {x: 8.0149214e-11, y: 0.42821312, z: 0.000000086834625}
  m_LocalScale: {x: 1, y: 1.0000001, z: 1.0000001}
  m_Children:
  - {fileID: 4000013177752566}
  m_Father: {fileID: 4000013237189676}
  m_RootOrder: 2
  m_LocalEulerAnglesHint: {x: 0, y: 0, z: 0}
--- !u!4 &4000013397893662
Transform:
  m_ObjectHideFlags: 1
  m_PrefabParentObject: {fileID: 0}
  m_PrefabInternal: {fileID: 100100000}
  m_GameObject: {fileID: 1000012460670376}
  m_LocalRotation: {x: -0.00011138025, y: -0.004348536, z: 0.999397, w: -0.03445044}
  m_LocalPosition: {x: 0.5742588, y: 0.819381, z: 0.03606684}
  m_LocalScale: {x: 1.0000136, y: 1, z: 1.0000002}
  m_Children: []
  m_Father: {fileID: 4000012759889120}
  m_RootOrder: 1
  m_LocalEulerAnglesHint: {x: 0, y: 0, z: 0}
--- !u!4 &4000013598939078
Transform:
  m_ObjectHideFlags: 1
  m_PrefabParentObject: {fileID: 0}
  m_PrefabInternal: {fileID: 100100000}
  m_GameObject: {fileID: 1000012571240282}
  m_LocalRotation: {x: 0.0000072248154, y: -0.02464654, z: 0.99969625, w: -0.00000013589106}
  m_LocalPosition: {x: -0.5108275, y: -0.62973785, z: 0.035080295}
  m_LocalScale: {x: 1, y: 0.9999997, z: 0.9998923}
  m_Children: []
  m_Father: {fileID: 4000012759889120}
  m_RootOrder: 2
  m_LocalEulerAnglesHint: {x: 0, y: 0, z: 0}
--- !u!4 &4000013987969650
Transform:
  m_ObjectHideFlags: 1
  m_PrefabParentObject: {fileID: 0}
  m_PrefabInternal: {fileID: 100100000}
  m_GameObject: {fileID: 1000014238322436}
  m_LocalRotation: {x: -0.0000072248154, y: -0.02464654, z: 0.99969625, w: 0.00000013589106}
  m_LocalPosition: {x: 0.5108275, y: -0.62973785, z: 0.035080295}
  m_LocalScale: {x: 1, y: 0.9999997, z: 0.9998923}
  m_Children: []
  m_Father: {fileID: 4000012759889120}
  m_RootOrder: 3
  m_LocalEulerAnglesHint: {x: 0, y: 0, z: 0}
--- !u!4 &4000014003201614
Transform:
  m_ObjectHideFlags: 1
  m_PrefabParentObject: {fileID: 0}
  m_PrefabInternal: {fileID: 100100000}
  m_GameObject: {fileID: 1000010198449654}
  m_LocalRotation: {x: 0.9658398, y: -0.0000039229813, z: 0.000014393248, w: 0.25913996}
  m_LocalPosition: {x: 0.000012972976, y: -0.020032955, z: -0.43181968}
  m_LocalScale: {x: 1, y: 1, z: 1.0000008}
  m_Children:
  - {fileID: 4000010742274876}
  m_Father: {fileID: 4000013237189676}
  m_RootOrder: 3
  m_LocalEulerAnglesHint: {x: 0, y: 0, z: 0}
--- !u!4 &4000014214237698
Transform:
  m_ObjectHideFlags: 1
  m_PrefabParentObject: {fileID: 0}
  m_PrefabInternal: {fileID: 100100000}
  m_GameObject: {fileID: 1000010639609864}
  m_LocalRotation: {x: 0.06824475, y: -0.021446971, z: -0.0031874846, w: 0.99743295}
  m_LocalPosition: {x: -0.00000004097819, y: 0.5042277, z: -0.00000017927958}
  m_LocalScale: {x: 1, y: 1, z: 1}
  m_Children:
  - {fileID: 4000011333555992}
  m_Father: {fileID: 4000010734094444}
  m_RootOrder: 0
  m_LocalEulerAnglesHint: {x: 0, y: 0, z: 0}
--- !u!95 &95000011194647896
Animator:
  serializedVersion: 3
  m_ObjectHideFlags: 1
  m_PrefabParentObject: {fileID: 0}
  m_PrefabInternal: {fileID: 100100000}
  m_GameObject: {fileID: 1000010779222936}
  m_Enabled: 1
  m_Avatar: {fileID: 9000000, guid: 4e51c6d8529851f4e9e514e21beb6c1a, type: 3}
  m_Controller: {fileID: 9100000, guid: 05544cd7d3ed2fa4e93ad9c631515bb4, type: 2}
  m_CullingMode: 1
  m_UpdateMode: 0
  m_ApplyRootMotion: 0
  m_LinearVelocityBlending: 0
  m_WarningMessage: 
  m_HasTransformHierarchy: 1
  m_AllowConstantClipSamplingOptimization: 1
--- !u!114 &114000013706976594
MonoBehaviour:
  m_ObjectHideFlags: 1
  m_PrefabParentObject: {fileID: 0}
  m_PrefabInternal: {fileID: 100100000}
  m_GameObject: {fileID: 1000010779222936}
  m_Enabled: 1
  m_EditorHideFlags: 0
  m_Script: {fileID: 11500000, guid: ad4007d38de622143b7c9dc55af35844, type: 3}
  m_Name: 
  m_EditorClassIdentifier: 
--- !u!137 &137000010165118374
SkinnedMeshRenderer:
  m_ObjectHideFlags: 1
  m_PrefabParentObject: {fileID: 0}
  m_PrefabInternal: {fileID: 100100000}
  m_GameObject: {fileID: 1000013176888076}
  m_Enabled: 1
  m_CastShadows: 1
  m_ReceiveShadows: 1
  m_DynamicOccludee: 1
  m_MotionVectors: 1
  m_LightProbeUsage: 1
  m_ReflectionProbeUsage: 1
  m_Materials:
  - {fileID: 2100000, guid: 69d074581b74191418ca6c62df0e36bd, type: 2}
  m_StaticBatchInfo:
    firstSubMesh: 0
    subMeshCount: 0
  m_StaticBatchRoot: {fileID: 0}
  m_ProbeAnchor: {fileID: 0}
  m_LightProbeVolumeOverride: {fileID: 0}
  m_ScaleInLightmap: 1
  m_PreserveUVs: 0
  m_IgnoreNormalsForChartDetection: 0
  m_ImportantGI: 0
  m_StitchLightmapSeams: 0
  m_SelectedEditorRenderState: 3
  m_MinimumChartSize: 4
  m_AutoUVMaxDistance: 0.5
  m_AutoUVMaxAngle: 89
  m_LightmapParameters: {fileID: 0}
  m_SortingLayerID: 0
  m_SortingLayer: 0
  m_SortingOrder: 0
  serializedVersion: 2
  m_Quality: 0
  m_UpdateWhenOffscreen: 0
  m_SkinnedMotionVectors: 1
  m_Mesh: {fileID: 4300002, guid: 4e51c6d8529851f4e9e514e21beb6c1a, type: 3}
  m_Bones:
  - {fileID: 4000013237189676}
  - {fileID: 4000013361925832}
  - {fileID: 4000013177752566}
  - {fileID: 4000012438323772}
  - {fileID: 4000010255200770}
  - {fileID: 4000011867897190}
  - {fileID: 4000011942205596}
  - {fileID: 4000011445353032}
  - {fileID: 4000013336623186}
  - {fileID: 4000010600046610}
  - {fileID: 4000010015275338}
  - {fileID: 4000013030986176}
  - {fileID: 4000014003201614}
  - {fileID: 4000010742274876}
  - {fileID: 4000010236362382}
  - {fileID: 4000010144386220}
  - {fileID: 4000011801652342}
  - {fileID: 4000010734094444}
  - {fileID: 4000014214237698}
  - {fileID: 4000011333555992}
  - {fileID: 4000013598939078}
  - {fileID: 4000013987969650}
  - {fileID: 4000012064881248}
  - {fileID: 4000010409335266}
  - {fileID: 4000011122365712}
  - {fileID: 4000013397893662}
  - {fileID: 4000012490316720}
  - {fileID: 4000010574729766}
  m_BlendShapeWeights: []
  m_RootBone: {fileID: 4000013237189676}
  m_AABB:
    m_Center: {x: 0.0021129847, y: 1.6995745, z: -0.13527203}
    m_Extent: {x: 1.6975516, y: 2.4886665, z: 2.4648242}
  m_DirtyAABB: 0
