%YAML 1.1
%TAG !u! tag:unity3d.com,2011:
--- !u!1001 &100100000
Prefab:
  m_ObjectHideFlags: 1
  serializedVersion: 2
  m_Modification:
    m_TransformParent: {fileID: 0}
    m_Modifications: []
    m_RemovedComponents: []
  m_ParentPrefab: {fileID: 0}
  m_RootGameObject: {fileID: 1000012678348420}
  m_IsPrefabParent: 1
--- !u!1 &1000010224505264
GameObject:
  m_ObjectHideFlags: 1
  m_PrefabParentObject: {fileID: 0}
  m_PrefabInternal: {fileID: 100100000}
  serializedVersion: 5
  m_Component:
  - component: {fileID: 4000013137408538}
  m_Layer: 0
  m_Name: PoleBack_R
  m_TagString: Untagged
  m_Icon: {fileID: 0}
  m_NavMeshLayer: 0
  m_StaticEditorFlags: 0
  m_IsActive: 1
--- !u!1 &1000010316673118
GameObject:
  m_ObjectHideFlags: 1
  m_PrefabParentObject: {fileID: 0}
  m_PrefabInternal: {fileID: 100100000}
  serializedVersion: 5
  m_Component:
  - component: {fileID: 4000010586699734}
  m_Layer: 0
  m_Name: PoleBack_L
  m_TagString: Untagged
  m_Icon: {fileID: 0}
  m_NavMeshLayer: 0
  m_StaticEditorFlags: 0
  m_IsActive: 1
--- !u!1 &1000010377489044
GameObject:
  m_ObjectHideFlags: 1
  m_PrefabParentObject: {fileID: 0}
  m_PrefabInternal: {fileID: 100100000}
  serializedVersion: 5
  m_Component:
  - component: {fileID: 4000010197309540}
  m_Layer: 0
  m_Name: FrontUpperLeg_R
  m_TagString: Untagged
  m_Icon: {fileID: 0}
  m_NavMeshLayer: 0
  m_StaticEditorFlags: 0
  m_IsActive: 1
--- !u!1 &1000010554344754
GameObject:
  m_ObjectHideFlags: 1
  m_PrefabParentObject: {fileID: 0}
  m_PrefabInternal: {fileID: 100100000}
  serializedVersion: 5
  m_Component:
  - component: {fileID: 4000010024969508}
  m_Layer: 0
  m_Name: FrontFootIK_L
  m_TagString: Untagged
  m_Icon: {fileID: 0}
  m_NavMeshLayer: 0
  m_StaticEditorFlags: 0
  m_IsActive: 1
--- !u!1 &1000010650899588
GameObject:
  m_ObjectHideFlags: 1
  m_PrefabParentObject: {fileID: 0}
  m_PrefabInternal: {fileID: 100100000}
  serializedVersion: 5
  m_Component:
  - component: {fileID: 4000014230852276}
  m_Layer: 0
  m_Name: Root
  m_TagString: Untagged
  m_Icon: {fileID: 0}
  m_NavMeshLayer: 0
  m_StaticEditorFlags: 0
  m_IsActive: 1
--- !u!1 &1000010692974552
GameObject:
  m_ObjectHideFlags: 1
  m_PrefabParentObject: {fileID: 0}
  m_PrefabInternal: {fileID: 100100000}
  serializedVersion: 5
  m_Component:
  - component: {fileID: 4000013009494046}
  m_Layer: 0
  m_Name: BackFootIK_L
  m_TagString: Untagged
  m_Icon: {fileID: 0}
  m_NavMeshLayer: 0
  m_StaticEditorFlags: 0
  m_IsActive: 1
--- !u!1 &1000010960763768
GameObject:
  m_ObjectHideFlags: 1
  m_PrefabParentObject: {fileID: 0}
  m_PrefabInternal: {fileID: 100100000}
  serializedVersion: 5
  m_Component:
  - component: {fileID: 4000012156916850}
  m_Layer: 0
  m_Name: BackUpperLeg_R
  m_TagString: Untagged
  m_Icon: {fileID: 0}
  m_NavMeshLayer: 0
  m_StaticEditorFlags: 0
  m_IsActive: 1
--- !u!1 &1000011305485532
GameObject:
  m_ObjectHideFlags: 1
  m_PrefabParentObject: {fileID: 0}
  m_PrefabInternal: {fileID: 100100000}
  serializedVersion: 5
  m_Component:
  - component: {fileID: 4000011003271018}
  m_Layer: 0
  m_Name: Ear_R
  m_TagString: Untagged
  m_Icon: {fileID: 0}
  m_NavMeshLayer: 0
  m_StaticEditorFlags: 0
  m_IsActive: 1
--- !u!1 &1000011410685548
GameObject:
  m_ObjectHideFlags: 1
  m_PrefabParentObject: {fileID: 0}
  m_PrefabInternal: {fileID: 100100000}
  serializedVersion: 5
  m_Component:
  - component: {fileID: 4000013246557954}
  m_Layer: 0
  m_Name: Head
  m_TagString: Untagged
  m_Icon: {fileID: 0}
  m_NavMeshLayer: 0
  m_StaticEditorFlags: 0
  m_IsActive: 1
--- !u!1 &1000011412590388
GameObject:
  m_ObjectHideFlags: 1
  m_PrefabParentObject: {fileID: 0}
  m_PrefabInternal: {fileID: 100100000}
  serializedVersion: 5
  m_Component:
  - component: {fileID: 4000011537080948}
  m_Layer: 0
  m_Name: FrontFoot_R
  m_TagString: Untagged
  m_Icon: {fileID: 0}
  m_NavMeshLayer: 0
  m_StaticEditorFlags: 0
  m_IsActive: 1
--- !u!1 &1000011775384368
GameObject:
  m_ObjectHideFlags: 1
  m_PrefabParentObject: {fileID: 0}
  m_PrefabInternal: {fileID: 100100000}
  serializedVersion: 5
  m_Component:
  - component: {fileID: 4000014140645856}
  m_Layer: 0
  m_Name: BackFootIK_R
  m_TagString: Untagged
  m_Icon: {fileID: 0}
  m_NavMeshLayer: 0
  m_StaticEditorFlags: 0
  m_IsActive: 1
--- !u!1 &1000012085502934
GameObject:
  m_ObjectHideFlags: 1
  m_PrefabParentObject: {fileID: 0}
  m_PrefabInternal: {fileID: 100100000}
  serializedVersion: 5
  m_Component:
  - component: {fileID: 4000010802890062}
  m_Layer: 0
  m_Name: BackLowerLeg_L
  m_TagString: Untagged
  m_Icon: {fileID: 0}
  m_NavMeshLayer: 0
  m_StaticEditorFlags: 0
  m_IsActive: 1
--- !u!1 &1000012347283284
GameObject:
  m_ObjectHideFlags: 1
  m_PrefabParentObject: {fileID: 0}
  m_PrefabInternal: {fileID: 100100000}
  serializedVersion: 5
  m_Component:
  - component: {fileID: 4000011938957776}
  m_Layer: 0
  m_Name: FrontLowerLeg_L
  m_TagString: Untagged
  m_Icon: {fileID: 0}
  m_NavMeshLayer: 0
  m_StaticEditorFlags: 0
  m_IsActive: 1
--- !u!1 &1000012446723372
GameObject:
  m_ObjectHideFlags: 1
  m_PrefabParentObject: {fileID: 0}
  m_PrefabInternal: {fileID: 100100000}
  serializedVersion: 5
  m_Component:
  - component: {fileID: 4000012899495686}
  m_Layer: 0
  m_Name: Tail
  m_TagString: Untagged
  m_Icon: {fileID: 0}
  m_NavMeshLayer: 0
  m_StaticEditorFlags: 0
  m_IsActive: 1
--- !u!1 &1000012678348420
GameObject:
  m_ObjectHideFlags: 0
  m_PrefabParentObject: {fileID: 0}
  m_PrefabInternal: {fileID: 100100000}
  serializedVersion: 5
  m_Component:
  - component: {fileID: 4000012337218264}
  - component: {fileID: 95000013080953496}
  - component: {fileID: 114000013478168418}
  m_Layer: 0
  m_Name: horse3_A
  m_TagString: Untagged
  m_Icon: {fileID: 0}
  m_NavMeshLayer: 0
  m_StaticEditorFlags: 0
  m_IsActive: 1
--- !u!1 &1000012808306410
GameObject:
  m_ObjectHideFlags: 1
  m_PrefabParentObject: {fileID: 0}
  m_PrefabInternal: {fileID: 100100000}
  serializedVersion: 5
  m_Component:
  - component: {fileID: 4000011224660760}
  m_Layer: 0
  m_Name: FrontFoot_L
  m_TagString: Untagged
  m_Icon: {fileID: 0}
  m_NavMeshLayer: 0
  m_StaticEditorFlags: 0
  m_IsActive: 1
--- !u!1 &1000012884599340
GameObject:
  m_ObjectHideFlags: 1
  m_PrefabParentObject: {fileID: 0}
  m_PrefabInternal: {fileID: 100100000}
  serializedVersion: 5
  m_Component:
  - component: {fileID: 4000010470006096}
  m_Layer: 0
  m_Name: BackFoot_L
  m_TagString: Untagged
  m_Icon: {fileID: 0}
  m_NavMeshLayer: 0
  m_StaticEditorFlags: 0
  m_IsActive: 1
--- !u!1 &1000013007730652
GameObject:
  m_ObjectHideFlags: 1
  m_PrefabParentObject: {fileID: 0}
  m_PrefabInternal: {fileID: 100100000}
  serializedVersion: 5
  m_Component:
  - component: {fileID: 4000010379896874}
  m_Layer: 0
  m_Name: FrontUpperLeg_L
  m_TagString: Untagged
  m_Icon: {fileID: 0}
  m_NavMeshLayer: 0
  m_StaticEditorFlags: 0
  m_IsActive: 1
--- !u!1 &1000013311864286
GameObject:
  m_ObjectHideFlags: 1
  m_PrefabParentObject: {fileID: 0}
  m_PrefabInternal: {fileID: 100100000}
  serializedVersion: 5
  m_Component:
  - component: {fileID: 4000013965738478}
  m_Layer: 0
  m_Name: Pole_R
  m_TagString: Untagged
  m_Icon: {fileID: 0}
  m_NavMeshLayer: 0
  m_StaticEditorFlags: 0
  m_IsActive: 1
--- !u!1 &1000013371736588
GameObject:
  m_ObjectHideFlags: 1
  m_PrefabParentObject: {fileID: 0}
  m_PrefabInternal: {fileID: 100100000}
  serializedVersion: 5
  m_Component:
  - component: {fileID: 4000012251432248}
  m_Layer: 0
  m_Name: FrontLowerLeg_R
  m_TagString: Untagged
  m_Icon: {fileID: 0}
  m_NavMeshLayer: 0
  m_StaticEditorFlags: 0
  m_IsActive: 1
--- !u!1 &1000013375128698
GameObject:
  m_ObjectHideFlags: 1
  m_PrefabParentObject: {fileID: 0}
  m_PrefabInternal: {fileID: 100100000}
  serializedVersion: 5
  m_Component:
  - component: {fileID: 4000011993459326}
  m_Layer: 0
  m_Name: Ear_L
  m_TagString: Untagged
  m_Icon: {fileID: 0}
  m_NavMeshLayer: 0
  m_StaticEditorFlags: 0
  m_IsActive: 1
--- !u!1 &1000013400530320
GameObject:
  m_ObjectHideFlags: 1
  m_PrefabParentObject: {fileID: 0}
  m_PrefabInternal: {fileID: 100100000}
  serializedVersion: 5
  m_Component:
  - component: {fileID: 4000012779187978}
  m_Layer: 0
  m_Name: BackUpperLeg_L
  m_TagString: Untagged
  m_Icon: {fileID: 0}
  m_NavMeshLayer: 0
  m_StaticEditorFlags: 0
  m_IsActive: 1
--- !u!1 &1000013445549770
GameObject:
  m_ObjectHideFlags: 1
  m_PrefabParentObject: {fileID: 0}
  m_PrefabInternal: {fileID: 100100000}
  serializedVersion: 5
  m_Component:
  - component: {fileID: 4000011065328498}
  m_Layer: 0
  m_Name: Torso
  m_TagString: Untagged
  m_Icon: {fileID: 0}
  m_NavMeshLayer: 0
  m_StaticEditorFlags: 0
  m_IsActive: 1
--- !u!1 &1000013559879514
GameObject:
  m_ObjectHideFlags: 1
  m_PrefabParentObject: {fileID: 0}
  m_PrefabInternal: {fileID: 100100000}
  serializedVersion: 5
  m_Component:
  - component: {fileID: 4000013588878344}
  m_Layer: 0
  m_Name: BackFoot_R
  m_TagString: Untagged
  m_Icon: {fileID: 0}
  m_NavMeshLayer: 0
  m_StaticEditorFlags: 0
  m_IsActive: 1
--- !u!1 &1000013568939472
GameObject:
  m_ObjectHideFlags: 1
  m_PrefabParentObject: {fileID: 0}
  m_PrefabInternal: {fileID: 100100000}
  serializedVersion: 5
  m_Component:
  - component: {fileID: 4000012079141856}
  m_Layer: 0
  m_Name: BackLowerLeg_R
  m_TagString: Untagged
  m_Icon: {fileID: 0}
  m_NavMeshLayer: 0
  m_StaticEditorFlags: 0
  m_IsActive: 1
--- !u!1 &1000013622440352
GameObject:
  m_ObjectHideFlags: 1
  m_PrefabParentObject: {fileID: 0}
  m_PrefabInternal: {fileID: 100100000}
  serializedVersion: 5
  m_Component:
  - component: {fileID: 4000010643341328}
  m_Layer: 0
  m_Name: FrontFootIK_R
  m_TagString: Untagged
  m_Icon: {fileID: 0}
  m_NavMeshLayer: 0
  m_StaticEditorFlags: 0
  m_IsActive: 1
--- !u!1 &1000013753532748
GameObject:
  m_ObjectHideFlags: 0
  m_PrefabParentObject: {fileID: 0}
  m_PrefabInternal: {fileID: 100100000}
  serializedVersion: 5
  m_Component:
  - component: {fileID: 4000011342849352}
  - component: {fileID: 137000010213503212}
  m_Layer: 0
  m_Name: Horse3_A
  m_TagString: Untagged
  m_Icon: {fileID: 0}
  m_NavMeshLayer: 0
  m_StaticEditorFlags: 0
  m_IsActive: 1
--- !u!1 &1000014015282614
GameObject:
  m_ObjectHideFlags: 0
  m_PrefabParentObject: {fileID: 0}
  m_PrefabInternal: {fileID: 100100000}
  serializedVersion: 5
  m_Component:
  - component: {fileID: 4000012535455856}
  m_Layer: 0
  m_Name: HorseArmature
  m_TagString: Untagged
  m_Icon: {fileID: 0}
  m_NavMeshLayer: 0
  m_StaticEditorFlags: 0
  m_IsActive: 1
--- !u!1 &1000014066201780
GameObject:
  m_ObjectHideFlags: 1
  m_PrefabParentObject: {fileID: 0}
  m_PrefabInternal: {fileID: 100100000}
  serializedVersion: 5
  m_Component:
  - component: {fileID: 4000010254064730}
  m_Layer: 0
  m_Name: "Tai\xC9nd"
  m_TagString: Untagged
  m_Icon: {fileID: 0}
  m_NavMeshLayer: 0
  m_StaticEditorFlags: 0
  m_IsActive: 1
--- !u!1 &1000014133318948
GameObject:
  m_ObjectHideFlags: 1
  m_PrefabParentObject: {fileID: 0}
  m_PrefabInternal: {fileID: 100100000}
  serializedVersion: 5
  m_Component:
  - component: {fileID: 4000013991332602}
  m_Layer: 0
  m_Name: Spine
  m_TagString: Untagged
  m_Icon: {fileID: 0}
  m_NavMeshLayer: 0
  m_StaticEditorFlags: 0
  m_IsActive: 1
--- !u!1 &1000014188057118
GameObject:
  m_ObjectHideFlags: 1
  m_PrefabParentObject: {fileID: 0}
  m_PrefabInternal: {fileID: 100100000}
  serializedVersion: 5
  m_Component:
  - component: {fileID: 4000013393049540}
  m_Layer: 0
  m_Name: Pole_L
  m_TagString: Untagged
  m_Icon: {fileID: 0}
  m_NavMeshLayer: 0
  m_StaticEditorFlags: 0
  m_IsActive: 1
--- !u!4 &4000010024969508
Transform:
  m_ObjectHideFlags: 1
  m_PrefabParentObject: {fileID: 0}
  m_PrefabInternal: {fileID: 100100000}
  m_GameObject: {fileID: 1000010554344754}
  m_LocalRotation: {x: 0.00003816086, y: -0.02332589, z: 0.9997275, w: 0.00095978857}
  m_LocalPosition: {x: -0.46845445, y: -0.66421163, z: 0.03661047}
  m_LocalScale: {x: 0.99999976, y: 0.9999997, z: 0.9998819}
  m_Children: []
  m_Father: {fileID: 4000012535455856}
  m_RootOrder: 2
  m_LocalEulerAnglesHint: {x: 0, y: 0, z: 0}
--- !u!4 &4000010197309540
Transform:
  m_ObjectHideFlags: 1
  m_PrefabParentObject: {fileID: 0}
  m_PrefabInternal: {fileID: 100100000}
  m_GameObject: {fileID: 1000010377489044}
  m_LocalRotation: {x: -0.7253057, y: -0.008595791, z: -0.025866736, w: 0.68788713}
  m_LocalPosition: {x: -0.5248489, y: 0.99681437, z: -1.0884801}
  m_LocalScale: {x: 1.0000004, y: 1.0001293, z: 1.0000008}
  m_Children:
  - {fileID: 4000012251432248}
  m_Father: {fileID: 4000011065328498}
  m_RootOrder: 1
  m_LocalEulerAnglesHint: {x: 0, y: 0, z: 0}
--- !u!4 &4000010254064730
Transform:
  m_ObjectHideFlags: 1
  m_PrefabParentObject: {fileID: 0}
  m_PrefabInternal: {fileID: 100100000}
  m_GameObject: {fileID: 1000014066201780}
  m_LocalRotation: {x: -0.5656227, y: 0.00000010114939, z: 0.00000007431284, w: 0.8246642}
  m_LocalPosition: {x: -3.0082956e-10, y: 0.5622029, z: 0.00000006015739}
  m_LocalScale: {x: 1, y: 1, z: 1}
  m_Children: []
  m_Father: {fileID: 4000012899495686}
  m_RootOrder: 0
  m_LocalEulerAnglesHint: {x: 0, y: 0, z: 0}
--- !u!4 &4000010379896874
Transform:
  m_ObjectHideFlags: 1
  m_PrefabParentObject: {fileID: 0}
  m_PrefabInternal: {fileID: 100100000}
  m_GameObject: {fileID: 1000013007730652}
  m_LocalRotation: {x: -0.7252985, y: 0.008787603, z: 0.026068734, w: 0.6878846}
  m_LocalPosition: {x: 0.52203757, y: 0.99681455, z: -1.088772}
  m_LocalScale: {x: 1.0000001, y: 1.0001292, z: 1.000001}
  m_Children:
  - {fileID: 4000011938957776}
  m_Father: {fileID: 4000011065328498}
  m_RootOrder: 0
  m_LocalEulerAnglesHint: {x: 0, y: 0, z: 0}
--- !u!4 &4000010470006096
Transform:
  m_ObjectHideFlags: 1
  m_PrefabParentObject: {fileID: 0}
  m_PrefabInternal: {fileID: 100100000}
  m_GameObject: {fileID: 1000012884599340}
  m_LocalRotation: {x: 0.66519535, y: 0.00581724, z: -0.061419725, w: 0.7441162}
  m_LocalPosition: {x: -0.000000069849186, y: 0.427171, z: -0.00000009778886}
  m_LocalScale: {x: 1, y: 1, z: 0.9999998}
  m_Children: []
  m_Father: {fileID: 4000010802890062}
  m_RootOrder: 0
  m_LocalEulerAnglesHint: {x: 0, y: 0, z: 0}
--- !u!4 &4000010586699734
Transform:
  m_ObjectHideFlags: 1
  m_PrefabParentObject: {fileID: 0}
  m_PrefabInternal: {fileID: 100100000}
  m_GameObject: {fileID: 1000010316673118}
  m_LocalRotation: {x: 0.8934639, y: -0.018038694, z: -0.4484204, w: 0.017778616}
  m_LocalPosition: {x: -0.50537, y: 0.34784344, z: 0.37972277}
  m_LocalScale: {x: 0.9999959, y: 0.99999994, z: 0.99996424}
  m_Children: []
  m_Father: {fileID: 4000012535455856}
  m_RootOrder: 6
  m_LocalEulerAnglesHint: {x: 0, y: 0, z: 0}
--- !u!4 &4000010643341328
Transform:
  m_ObjectHideFlags: 1
  m_PrefabParentObject: {fileID: 0}
  m_PrefabInternal: {fileID: 100100000}
  m_GameObject: {fileID: 1000013622440352}
  m_LocalRotation: {x: -0.00003816086, y: -0.02332589, z: 0.9997275, w: -0.00095978857}
  m_LocalPosition: {x: 0.46845445, y: -0.66421163, z: 0.03661047}
  m_LocalScale: {x: 0.99999976, y: 0.9999997, z: 0.9998819}
  m_Children: []
  m_Father: {fileID: 4000012535455856}
  m_RootOrder: 3
  m_LocalEulerAnglesHint: {x: 0, y: 0, z: 0}
--- !u!4 &4000010802890062
Transform:
  m_ObjectHideFlags: 1
  m_PrefabParentObject: {fileID: 0}
  m_PrefabInternal: {fileID: 100100000}
  m_GameObject: {fileID: 1000012085502934}
  m_LocalRotation: {x: 0.06293071, y: 0.012757941, z: 0.0033306635, w: 0.9979308}
  m_LocalPosition: {x: -0.000000020489095, y: 0.53709364, z: 0.000000088009976}
  m_LocalScale: {x: 1.0000001, y: 1.0000001, z: 0.9999999}
  m_Children:
  - {fileID: 4000010470006096}
  m_Father: {fileID: 4000012779187978}
  m_RootOrder: 0
  m_LocalEulerAnglesHint: {x: 0, y: 0, z: 0}
--- !u!4 &4000011003271018
Transform:
  m_ObjectHideFlags: 1
  m_PrefabParentObject: {fileID: 0}
  m_PrefabInternal: {fileID: 100100000}
  m_GameObject: {fileID: 1000011305485532}
  m_LocalRotation: {x: 0.14600886, y: 0.6589823, z: 0.31785876, w: 0.6658751}
  m_LocalPosition: {x: -0.4978306, y: 1.160088, z: 0.5215645}
  m_LocalScale: {x: 1, y: 1.0000001, z: 0.99999994}
  m_Children: []
  m_Father: {fileID: 4000013246557954}
  m_RootOrder: 1
  m_LocalEulerAnglesHint: {x: 0, y: 0, z: 0}
--- !u!4 &4000011065328498
Transform:
  m_ObjectHideFlags: 1
  m_PrefabParentObject: {fileID: 0}
  m_PrefabInternal: {fileID: 100100000}
  m_GameObject: {fileID: 1000013445549770}
  m_LocalRotation: {x: -0.05995915, y: -0.0002039147, z: -0.0007069601, w: 0.9982006}
  m_LocalPosition: {x: -7.275957e-11, y: 0.77612674, z: 0.000000021215326}
  m_LocalScale: {x: 1, y: 0.99999994, z: 1}
  m_Children:
  - {fileID: 4000010379896874}
  - {fileID: 4000010197309540}
  - {fileID: 4000013246557954}
  m_Father: {fileID: 4000013991332602}
  m_RootOrder: 0
  m_LocalEulerAnglesHint: {x: 0, y: 0, z: 0}
--- !u!4 &4000011224660760
Transform:
  m_ObjectHideFlags: 1
  m_PrefabParentObject: {fileID: 0}
  m_PrefabInternal: {fileID: 100100000}
  m_GameObject: {fileID: 1000012808306410}
  m_LocalRotation: {x: 0.7727494, y: -0.01904901, z: -0.036265355, w: 0.63338804}
  m_LocalPosition: {x: 0.000000017695127, y: 0.382829, z: 0.000000017695127}
  m_LocalScale: {x: 1, y: 0.9999998, z: 0.9999997}
  m_Children: []
  m_Father: {fileID: 4000011938957776}
  m_RootOrder: 0
  m_LocalEulerAnglesHint: {x: 0, y: 0, z: 0}
--- !u!4 &4000011342849352
Transform:
  m_ObjectHideFlags: 1
  m_PrefabParentObject: {fileID: 0}
  m_PrefabInternal: {fileID: 100100000}
  m_GameObject: {fileID: 1000013753532748}
  m_LocalRotation: {x: 0, y: -0, z: -0, w: 1}
  m_LocalPosition: {x: -0, y: 0, z: 0}
  m_LocalScale: {x: 1, y: 1, z: 1}
  m_Children: []
  m_Father: {fileID: 4000012337218264}
  m_RootOrder: 0
  m_LocalEulerAnglesHint: {x: 0, y: 0, z: 0}
--- !u!4 &4000011537080948
Transform:
  m_ObjectHideFlags: 1
  m_PrefabParentObject: {fileID: 0}
  m_PrefabInternal: {fileID: 100100000}
  m_GameObject: {fileID: 1000011412590388}
  m_LocalRotation: {x: 0.7727493, y: 0.019048983, z: 0.0362652, w: 0.6333881}
  m_LocalPosition: {x: -0.000000022817401, y: 0.38282904, z: 0.000000015832482}
  m_LocalScale: {x: 1, y: 0.99999994, z: 0.99999976}
  m_Children: []
  m_Father: {fileID: 4000012251432248}
  m_RootOrder: 0
  m_LocalEulerAnglesHint: {x: 0, y: 0, z: 0}
--- !u!4 &4000011938957776
Transform:
  m_ObjectHideFlags: 1
  m_PrefabParentObject: {fileID: 0}
  m_PrefabInternal: {fileID: 100100000}
  m_GameObject: {fileID: 1000012347283284}
  m_LocalRotation: {x: -0.07949557, y: 0.0028034449, z: 0.015909975, w: 0.99670434}
  m_LocalPosition: {x: -0.00000002235174, y: 0.5379539, z: 0.00000007078051}
  m_LocalScale: {x: 1, y: 1, z: 0.99999994}
  m_Children:
  - {fileID: 4000011224660760}
  m_Father: {fileID: 4000010379896874}
  m_RootOrder: 0
  m_LocalEulerAnglesHint: {x: 0, y: 0, z: 0}
--- !u!4 &4000011993459326
Transform:
  m_ObjectHideFlags: 1
  m_PrefabParentObject: {fileID: 0}
  m_PrefabInternal: {fileID: 100100000}
  m_GameObject: {fileID: 1000013375128698}
  m_LocalRotation: {x: 0.14611258, y: -0.6591999, z: -0.31781116, w: 0.6656596}
  m_LocalPosition: {x: 0.49308005, y: 1.160088, z: 0.5218886}
  m_LocalScale: {x: 0.99999976, y: 0.9999999, z: 0.9999998}
  m_Children: []
  m_Father: {fileID: 4000013246557954}
  m_RootOrder: 0
  m_LocalEulerAnglesHint: {x: 0, y: 0, z: 0}
--- !u!4 &4000012079141856
Transform:
  m_ObjectHideFlags: 1
  m_PrefabParentObject: {fileID: 0}
  m_PrefabInternal: {fileID: 100100000}
  m_GameObject: {fileID: 1000013568939472}
  m_LocalRotation: {x: 0.06291819, y: -0.0127580315, z: -0.0033300195, w: 0.9979316}
  m_LocalPosition: {x: 0.00000002235174, y: 0.53709364, z: 0.000000032130625}
  m_LocalScale: {x: 0.9999999, y: 1.0000001, z: 1}
  m_Children:
  - {fileID: 4000013588878344}
  m_Father: {fileID: 4000012156916850}
  m_RootOrder: 0
  m_LocalEulerAnglesHint: {x: 0, y: 0, z: 0}
--- !u!4 &4000012156916850
Transform:
  m_ObjectHideFlags: 1
  m_PrefabParentObject: {fileID: 0}
  m_PrefabInternal: {fileID: 100100000}
  m_GameObject: {fileID: 1000010960763768}
  m_LocalRotation: {x: -0.043757644, y: 0.68423426, z: 0.7279423, w: 0.002983265}
  m_LocalPosition: {x: 0.5851521, y: 0.32086852, z: 0.9948485}
  m_LocalScale: {x: 1, y: 0.9999996, z: 0.9999999}
  m_Children:
  - {fileID: 4000012079141856}
  m_Father: {fileID: 4000014230852276}
  m_RootOrder: 1
  m_LocalEulerAnglesHint: {x: 0, y: 0, z: 0}
--- !u!4 &4000012251432248
Transform:
  m_ObjectHideFlags: 1
  m_PrefabParentObject: {fileID: 0}
  m_PrefabInternal: {fileID: 100100000}
  m_GameObject: {fileID: 1000013371736588}
  m_LocalRotation: {x: -0.07949571, y: -0.0028034565, z: -0.015909886, w: 0.99670434}
  m_LocalPosition: {x: 0.00000001117587, y: 0.5379537, z: 0.00000018440186}
  m_LocalScale: {x: 1, y: 0.99999994, z: 0.99999994}
  m_Children:
  - {fileID: 4000011537080948}
  m_Father: {fileID: 4000010197309540}
  m_RootOrder: 0
  m_LocalEulerAnglesHint: {x: 0, y: 0, z: 0}
--- !u!4 &4000012337218264
Transform:
  m_ObjectHideFlags: 1
  m_PrefabParentObject: {fileID: 0}
  m_PrefabInternal: {fileID: 100100000}
  m_GameObject: {fileID: 1000012678348420}
  m_LocalRotation: {x: 0, y: 0, z: 0, w: 1}
  m_LocalPosition: {x: 0, y: 0, z: 0}
  m_LocalScale: {x: 1, y: 1, z: 1}
  m_Children:
  - {fileID: 4000011342849352}
  - {fileID: 4000012535455856}
  m_Father: {fileID: 0}
  m_RootOrder: 0
  m_LocalEulerAnglesHint: {x: 0, y: 0, z: 0}
--- !u!4 &4000012535455856
Transform:
  m_ObjectHideFlags: 1
  m_PrefabParentObject: {fileID: 0}
  m_PrefabInternal: {fileID: 100100000}
  m_GameObject: {fileID: 1000014015282614}
  m_LocalRotation: {x: -0.7071068, y: 0, z: -0, w: 0.7071067}
  m_LocalPosition: {x: -0, y: 0, z: -0.29334122}
  m_LocalScale: {x: 1, y: 1, z: 1}
  m_Children:
  - {fileID: 4000013009494046}
  - {fileID: 4000014140645856}
  - {fileID: 4000010024969508}
  - {fileID: 4000010643341328}
  - {fileID: 4000013393049540}
  - {fileID: 4000013965738478}
  - {fileID: 4000010586699734}
  - {fileID: 4000013137408538}
  - {fileID: 4000014230852276}
  m_Father: {fileID: 4000012337218264}
  m_RootOrder: 1
  m_LocalEulerAnglesHint: {x: 0, y: 0, z: 0}
--- !u!4 &4000012779187978
Transform:
  m_ObjectHideFlags: 1
  m_PrefabParentObject: {fileID: 0}
  m_PrefabInternal: {fileID: 100100000}
  m_GameObject: {fileID: 1000013400530320}
  m_LocalRotation: {x: 0.043735463, y: 0.6842304, z: 0.72794724, w: -0.0029621765}
  m_LocalPosition: {x: -0.580803, y: 0.32086852, z: 0.9948132}
  m_LocalScale: {x: 1, y: 1.0000001, z: 0.99999994}
  m_Children:
  - {fileID: 4000010802890062}
  m_Father: {fileID: 4000014230852276}
  m_RootOrder: 0
  m_LocalEulerAnglesHint: {x: 0, y: 0, z: 0}
--- !u!4 &4000012899495686
Transform:
  m_ObjectHideFlags: 1
  m_PrefabParentObject: {fileID: 0}
  m_PrefabInternal: {fileID: 100100000}
  m_GameObject: {fileID: 1000012446723372}
  m_LocalRotation: {x: 0.98662156, y: -0.0000024944068, z: 0.0000147824785, w: 0.16302718}
  m_LocalPosition: {x: 0.000008500443, y: -0.03678691, z: -0.2806143}
  m_LocalScale: {x: 1, y: 1.0000001, z: 1.0000021}
  m_Children:
  - {fileID: 4000010254064730}
  m_Father: {fileID: 4000014230852276}
  m_RootOrder: 3
  m_LocalEulerAnglesHint: {x: 0, y: 0, z: 0}
--- !u!4 &4000013009494046
Transform:
  m_ObjectHideFlags: 1
  m_PrefabParentObject: {fileID: 0}
  m_PrefabInternal: {fileID: 100100000}
  m_GameObject: {fileID: 1000010692974552}
  m_LocalRotation: {x: 0.0001873793, y: -0.0020662758, z: 0.99945897, w: 0.03282487}
  m_LocalPosition: {x: -0.51595837, y: 0.9214884, z: 0.03671073}
  m_LocalScale: {x: 0.9999858, y: 0.99999994, z: 0.99999994}
  m_Children: []
  m_Father: {fileID: 4000012535455856}
  m_RootOrder: 0
  m_LocalEulerAnglesHint: {x: 0, y: 0, z: 0}
--- !u!4 &4000013137408538
Transform:
  m_ObjectHideFlags: 1
  m_PrefabParentObject: {fileID: 0}
  m_PrefabInternal: {fileID: 100100000}
  m_GameObject: {fileID: 1000010224505264}
  m_LocalRotation: {x: 0.8934639, y: 0.018038694, z: 0.4484204, w: 0.017778616}
  m_LocalPosition: {x: 0.50537, y: 0.34784344, z: 0.37972277}
  m_LocalScale: {x: 0.9999959, y: 0.99999994, z: 0.99996424}
  m_Children: []
  m_Father: {fileID: 4000012535455856}
  m_RootOrder: 7
  m_LocalEulerAnglesHint: {x: 0, y: 0, z: 0}
--- !u!4 &4000013246557954
Transform:
  m_ObjectHideFlags: 1
  m_PrefabParentObject: {fileID: 0}
  m_PrefabInternal: {fileID: 100100000}
  m_GameObject: {fileID: 1000011410685548}
  m_LocalRotation: {x: 0.36698523, y: 0.00028171297, z: 0.000008887882, w: 0.93022674}
  m_LocalPosition: {x: 0.0011425216, y: 1.1862344, z: 0.14431076}
  m_LocalScale: {x: 0.99999994, y: 1.0000607, z: 1.0000695}
  m_Children:
  - {fileID: 4000011993459326}
  - {fileID: 4000011003271018}
  m_Father: {fileID: 4000011065328498}
  m_RootOrder: 2
  m_LocalEulerAnglesHint: {x: 0, y: 0, z: 0}
--- !u!4 &4000013393049540
Transform:
  m_ObjectHideFlags: 1
  m_PrefabParentObject: {fileID: 0}
  m_PrefabInternal: {fileID: 100100000}
  m_GameObject: {fileID: 1000014188057118}
  m_LocalRotation: {x: 0.8935508, y: 0.004395366, z: -0.44797787, w: -0.029385183}
  m_LocalPosition: {x: -0.5042449, y: -0.0527697, z: 0.4013561}
  m_LocalScale: {x: 1.000006, y: 1.0000001, z: 1.0000588}
  m_Children: []
  m_Father: {fileID: 4000012535455856}
  m_RootOrder: 4
  m_LocalEulerAnglesHint: {x: 0, y: 0, z: 0}
--- !u!4 &4000013588878344
Transform:
  m_ObjectHideFlags: 1
  m_PrefabParentObject: {fileID: 0}
  m_PrefabInternal: {fileID: 100100000}
  m_GameObject: {fileID: 1000013559879514}
  m_LocalRotation: {x: 0.6652007, y: -0.0058178673, z: 0.061419293, w: 0.7441115}
  m_LocalPosition: {x: 0.000000051222738, y: 0.4271712, z: -0.00000004796311}
  m_LocalScale: {x: 1.0000001, y: 0.99999994, z: 0.99999994}
  m_Children: []
  m_Father: {fileID: 4000012079141856}
  m_RootOrder: 0
  m_LocalEulerAnglesHint: {x: 0, y: 0, z: 0}
--- !u!4 &4000013965738478
Transform:
  m_ObjectHideFlags: 1
  m_PrefabParentObject: {fileID: 0}
  m_PrefabInternal: {fileID: 100100000}
  m_GameObject: {fileID: 1000013311864286}
  m_LocalRotation: {x: 0.8935508, y: -0.004395366, z: 0.44797787, w: -0.029385183}
  m_LocalPosition: {x: 0.5042449, y: -0.0527697, z: 0.4013561}
  m_LocalScale: {x: 1.000006, y: 1.0000001, z: 1.0000588}
  m_Children: []
  m_Father: {fileID: 4000012535455856}
  m_RootOrder: 5
  m_LocalEulerAnglesHint: {x: 0, y: 0, z: 0}
--- !u!4 &4000013991332602
Transform:
  m_ObjectHideFlags: 1
  m_PrefabParentObject: {fileID: 0}
  m_PrefabInternal: {fileID: 100100000}
  m_GameObject: {fileID: 1000014133318948}
  m_LocalRotation: {x: 0.0007125358, y: 0.99978495, z: -0.020724744, w: -0.00007780186}
  m_LocalPosition: {x: 1.5916156e-11, y: 0.3940542, z: 0.000000007886029}
  m_LocalScale: {x: 1, y: 1, z: 1}
  m_Children:
  - {fileID: 4000011065328498}
  m_Father: {fileID: 4000014230852276}
  m_RootOrder: 2
  m_LocalEulerAnglesHint: {x: 0, y: 0, z: 0}
--- !u!4 &4000014140645856
Transform:
  m_ObjectHideFlags: 1
  m_PrefabParentObject: {fileID: 0}
  m_PrefabInternal: {fileID: 100100000}
  m_GameObject: {fileID: 1000011775384368}
  m_LocalRotation: {x: -0.0001873793, y: -0.0020662758, z: 0.99945897, w: -0.03282487}
  m_LocalPosition: {x: 0.51595837, y: 0.9214884, z: 0.03671073}
  m_LocalScale: {x: 0.9999858, y: 0.99999994, z: 0.99999994}
  m_Children: []
  m_Father: {fileID: 4000012535455856}
  m_RootOrder: 1
  m_LocalEulerAnglesHint: {x: 0, y: 0, z: 0}
--- !u!4 &4000014230852276
Transform:
  m_ObjectHideFlags: 1
  m_PrefabParentObject: {fileID: 0}
  m_PrefabInternal: {fileID: 100100000}
  m_GameObject: {fileID: 1000010650899588}
  m_LocalRotation: {x: 0.9997227, y: 0.00000034893955, z: 0.000015102168, w: 0.02354841}
  m_LocalPosition: {x: -0.0022046175, y: 1.3262768, z: 1.9743835}
  m_LocalScale: {x: 1, y: 0.99999994, z: 0.9998698}
  m_Children:
  - {fileID: 4000012779187978}
  - {fileID: 4000012156916850}
  - {fileID: 4000013991332602}
  - {fileID: 4000012899495686}
  m_Father: {fileID: 4000012535455856}
  m_RootOrder: 8
  m_LocalEulerAnglesHint: {x: 0, y: 0, z: 0}
--- !u!95 &95000013080953496
Animator:
  serializedVersion: 3
  m_ObjectHideFlags: 1
  m_PrefabParentObject: {fileID: 0}
  m_PrefabInternal: {fileID: 100100000}
  m_GameObject: {fileID: 1000012678348420}
  m_Enabled: 1
  m_Avatar: {fileID: 9000000, guid: 2178b6692c58cf14cbca7bb28b9e8b63, type: 3}
  m_Controller: {fileID: 9100000, guid: 360c4ba217af67245881137b3fc0f414, type: 2}
  m_CullingMode: 1
  m_UpdateMode: 0
  m_ApplyRootMotion: 0
  m_LinearVelocityBlending: 0
  m_WarningMessage: 
  m_HasTransformHierarchy: 1
  m_AllowConstantClipSamplingOptimization: 1
--- !u!114 &114000013478168418
MonoBehaviour:
  m_ObjectHideFlags: 1
  m_PrefabParentObject: {fileID: 0}
  m_PrefabInternal: {fileID: 100100000}
  m_GameObject: {fileID: 1000012678348420}
  m_Enabled: 1
  m_EditorHideFlags: 0
  m_Script: {fileID: 11500000, guid: f6bb4f0d1c21dcf4a81794d9a84766f1, type: 3}
  m_Name: 
  m_EditorClassIdentifier: 
--- !u!137 &137000010213503212
SkinnedMeshRenderer:
  m_ObjectHideFlags: 1
  m_PrefabParentObject: {fileID: 0}
  m_PrefabInternal: {fileID: 100100000}
  m_GameObject: {fileID: 1000013753532748}
  m_Enabled: 1
  m_CastShadows: 1
  m_ReceiveShadows: 1
  m_DynamicOccludee: 1
  m_MotionVectors: 1
  m_LightProbeUsage: 1
  m_ReflectionProbeUsage: 1
  m_Materials:
  - {fileID: 2100000, guid: 69d074581b74191418ca6c62df0e36bd, type: 2}
  m_StaticBatchInfo:
    firstSubMesh: 0
    subMeshCount: 0
  m_StaticBatchRoot: {fileID: 0}
  m_ProbeAnchor: {fileID: 0}
  m_LightProbeVolumeOverride: {fileID: 0}
  m_ScaleInLightmap: 1
  m_PreserveUVs: 0
  m_IgnoreNormalsForChartDetection: 0
  m_ImportantGI: 0
  m_StitchLightmapSeams: 0
  m_SelectedEditorRenderState: 3
  m_MinimumChartSize: 4
  m_AutoUVMaxDistance: 0.5
  m_AutoUVMaxAngle: 89
  m_LightmapParameters: {fileID: 0}
  m_SortingLayerID: 0
  m_SortingLayer: 0
  m_SortingOrder: 0
  serializedVersion: 2
  m_Quality: 0
  m_UpdateWhenOffscreen: 0
  m_SkinnedMotionVectors: 1
  m_Mesh: {fileID: 4300000, guid: 2178b6692c58cf14cbca7bb28b9e8b63, type: 3}
  m_Bones:
  - {fileID: 4000014230852276}
  - {fileID: 4000013991332602}
  - {fileID: 4000011065328498}
  - {fileID: 4000013246557954}
  - {fileID: 4000011993459326}
  - {fileID: 4000011003271018}
  - {fileID: 4000010379896874}
  - {fileID: 4000011938957776}
  - {fileID: 4000011224660760}
  - {fileID: 4000010197309540}
  - {fileID: 4000012251432248}
  - {fileID: 4000011537080948}
  - {fileID: 4000012899495686}
  - {fileID: 4000010254064730}
  - {fileID: 4000012779187978}
  - {fileID: 4000010802890062}
  - {fileID: 4000010470006096}
  - {fileID: 4000012156916850}
  - {fileID: 4000012079141856}
  - {fileID: 4000013588878344}
  - {fileID: 4000010024969508}
  - {fileID: 4000010643341328}
  - {fileID: 4000013393049540}
  - {fileID: 4000013965738478}
  - {fileID: 4000013009494046}
  - {fileID: 4000014140645856}
  - {fileID: 4000010586699734}
  - {fileID: 4000013137408538}
  m_BlendShapeWeights: []
  m_RootBone: {fileID: 4000014230852276}
  m_AABB:
    m_Center: {x: 0.0024120212, y: 1.7019922, z: 0.0995698}
    m_Extent: {x: 0.89229566, y: 2.5677385, z: 1.9990942}
  m_DirtyAABB: 0
