%YAML 1.1
%TAG !u! tag:unity3d.com,2011:
--- !u!1001 &100100000
Prefab:
  m_ObjectHideFlags: 1
  serializedVersion: 2
  m_Modification:
    m_TransformParent: {fileID: 0}
    m_Modifications: []
    m_RemovedComponents: []
  m_ParentPrefab: {fileID: 0}
  m_RootGameObject: {fileID: 1000011618405778}
  m_IsPrefabParent: 1
--- !u!1 &1000010086255936
GameObject:
  m_ObjectHideFlags: 1
  m_PrefabParentObject: {fileID: 0}
  m_PrefabInternal: {fileID: 100100000}
  serializedVersion: 5
  m_Component:
  - component: {fileID: 4000014219195088}
  m_Layer: 0
  m_Name: FrontUpperLeg_L
  m_TagString: Untagged
  m_Icon: {fileID: 0}
  m_NavMeshLayer: 0
  m_StaticEditorFlags: 0
  m_IsActive: 1
--- !u!1 &1000010243906188
GameObject:
  m_ObjectHideFlags: 1
  m_PrefabParentObject: {fileID: 0}
  m_PrefabInternal: {fileID: 100100000}
  serializedVersion: 5
  m_Component:
  - component: {fileID: 4000010249316126}
  m_Layer: 0
  m_Name: FrontFootIK_L
  m_TagString: Untagged
  m_Icon: {fileID: 0}
  m_NavMeshLayer: 0
  m_StaticEditorFlags: 0
  m_IsActive: 1
--- !u!1 &1000010262078532
GameObject:
  m_ObjectHideFlags: 1
  m_PrefabParentObject: {fileID: 0}
  m_PrefabInternal: {fileID: 100100000}
  serializedVersion: 5
  m_Component:
  - component: {fileID: 4000011269444480}
  m_Layer: 0
  m_Name: Root
  m_TagString: Untagged
  m_Icon: {fileID: 0}
  m_NavMeshLayer: 0
  m_StaticEditorFlags: 0
  m_IsActive: 1
--- !u!1 &1000010299963472
GameObject:
  m_ObjectHideFlags: 1
  m_PrefabParentObject: {fileID: 0}
  m_PrefabInternal: {fileID: 100100000}
  serializedVersion: 5
  m_Component:
  - component: {fileID: 4000012307490480}
  m_Layer: 0
  m_Name: Ear_L
  m_TagString: Untagged
  m_Icon: {fileID: 0}
  m_NavMeshLayer: 0
  m_StaticEditorFlags: 0
  m_IsActive: 1
--- !u!1 &1000010366167854
GameObject:
  m_ObjectHideFlags: 1
  m_PrefabParentObject: {fileID: 0}
  m_PrefabInternal: {fileID: 100100000}
  serializedVersion: 5
  m_Component:
  - component: {fileID: 4000012967515838}
  m_Layer: 0
  m_Name: BackLowerLeg_L
  m_TagString: Untagged
  m_Icon: {fileID: 0}
  m_NavMeshLayer: 0
  m_StaticEditorFlags: 0
  m_IsActive: 1
--- !u!1 &1000010701452500
GameObject:
  m_ObjectHideFlags: 1
  m_PrefabParentObject: {fileID: 0}
  m_PrefabInternal: {fileID: 100100000}
  serializedVersion: 5
  m_Component:
  - component: {fileID: 4000012899687846}
  m_Layer: 0
  m_Name: BackFoot_R
  m_TagString: Untagged
  m_Icon: {fileID: 0}
  m_NavMeshLayer: 0
  m_StaticEditorFlags: 0
  m_IsActive: 1
--- !u!1 &1000010736039530
GameObject:
  m_ObjectHideFlags: 1
  m_PrefabParentObject: {fileID: 0}
  m_PrefabInternal: {fileID: 100100000}
  serializedVersion: 5
  m_Component:
  - component: {fileID: 4000011683163514}
  m_Layer: 0
  m_Name: PoleBack_R
  m_TagString: Untagged
  m_Icon: {fileID: 0}
  m_NavMeshLayer: 0
  m_StaticEditorFlags: 0
  m_IsActive: 1
--- !u!1 &1000010974301484
GameObject:
  m_ObjectHideFlags: 1
  m_PrefabParentObject: {fileID: 0}
  m_PrefabInternal: {fileID: 100100000}
  serializedVersion: 5
  m_Component:
  - component: {fileID: 4000012665771548}
  m_Layer: 0
  m_Name: Pole_R
  m_TagString: Untagged
  m_Icon: {fileID: 0}
  m_NavMeshLayer: 0
  m_StaticEditorFlags: 0
  m_IsActive: 1
--- !u!1 &1000011276139960
GameObject:
  m_ObjectHideFlags: 1
  m_PrefabParentObject: {fileID: 0}
  m_PrefabInternal: {fileID: 100100000}
  serializedVersion: 5
  m_Component:
  - component: {fileID: 4000013480054862}
  m_Layer: 0
  m_Name: FrontLowerLeg_R
  m_TagString: Untagged
  m_Icon: {fileID: 0}
  m_NavMeshLayer: 0
  m_StaticEditorFlags: 0
  m_IsActive: 1
--- !u!1 &1000011316042914
GameObject:
  m_ObjectHideFlags: 1
  m_PrefabParentObject: {fileID: 0}
  m_PrefabInternal: {fileID: 100100000}
  serializedVersion: 5
  m_Component:
  - component: {fileID: 4000013873695656}
  m_Layer: 0
  m_Name: BackFoot_L
  m_TagString: Untagged
  m_Icon: {fileID: 0}
  m_NavMeshLayer: 0
  m_StaticEditorFlags: 0
  m_IsActive: 1
--- !u!1 &1000011366554306
GameObject:
  m_ObjectHideFlags: 1
  m_PrefabParentObject: {fileID: 0}
  m_PrefabInternal: {fileID: 100100000}
  serializedVersion: 5
  m_Component:
  - component: {fileID: 4000010880549978}
  m_Layer: 0
  m_Name: Tail
  m_TagString: Untagged
  m_Icon: {fileID: 0}
  m_NavMeshLayer: 0
  m_StaticEditorFlags: 0
  m_IsActive: 1
--- !u!1 &1000011420637990
GameObject:
  m_ObjectHideFlags: 1
  m_PrefabParentObject: {fileID: 0}
  m_PrefabInternal: {fileID: 100100000}
  serializedVersion: 5
  m_Component:
  - component: {fileID: 4000011377286194}
  m_Layer: 0
  m_Name: Spine
  m_TagString: Untagged
  m_Icon: {fileID: 0}
  m_NavMeshLayer: 0
  m_StaticEditorFlags: 0
  m_IsActive: 1
--- !u!1 &1000011510883598
GameObject:
  m_ObjectHideFlags: 1
  m_PrefabParentObject: {fileID: 0}
  m_PrefabInternal: {fileID: 100100000}
  serializedVersion: 5
  m_Component:
  - component: {fileID: 4000012058395960}
  m_Layer: 0
  m_Name: BackFootIK_L
  m_TagString: Untagged
  m_Icon: {fileID: 0}
  m_NavMeshLayer: 0
  m_StaticEditorFlags: 0
  m_IsActive: 1
--- !u!1 &1000011618405778
GameObject:
  m_ObjectHideFlags: 0
  m_PrefabParentObject: {fileID: 0}
  m_PrefabInternal: {fileID: 100100000}
  serializedVersion: 5
  m_Component:
  - component: {fileID: 4000013142340224}
  - component: {fileID: 95000010832619978}
  - component: {fileID: 114000011401346842}
  m_Layer: 0
  m_Name: pig_A
  m_TagString: Untagged
  m_Icon: {fileID: 0}
  m_NavMeshLayer: 0
  m_StaticEditorFlags: 0
  m_IsActive: 1
--- !u!1 &1000011885677166
GameObject:
  m_ObjectHideFlags: 1
  m_PrefabParentObject: {fileID: 0}
  m_PrefabInternal: {fileID: 100100000}
  serializedVersion: 5
  m_Component:
  - component: {fileID: 4000013540818662}
  m_Layer: 0
  m_Name: FrontFoot_R
  m_TagString: Untagged
  m_Icon: {fileID: 0}
  m_NavMeshLayer: 0
  m_StaticEditorFlags: 0
  m_IsActive: 1
--- !u!1 &1000011939132486
GameObject:
  m_ObjectHideFlags: 1
  m_PrefabParentObject: {fileID: 0}
  m_PrefabInternal: {fileID: 100100000}
  serializedVersion: 5
  m_Component:
  - component: {fileID: 4000012409882776}
  m_Layer: 0
  m_Name: FrontUpperLeg_R
  m_TagString: Untagged
  m_Icon: {fileID: 0}
  m_NavMeshLayer: 0
  m_StaticEditorFlags: 0
  m_IsActive: 1
--- !u!1 &1000012015534610
GameObject:
  m_ObjectHideFlags: 1
  m_PrefabParentObject: {fileID: 0}
  m_PrefabInternal: {fileID: 100100000}
  serializedVersion: 5
  m_Component:
  - component: {fileID: 4000012173476364}
  m_Layer: 0
  m_Name: PoleBack_L
  m_TagString: Untagged
  m_Icon: {fileID: 0}
  m_NavMeshLayer: 0
  m_StaticEditorFlags: 0
  m_IsActive: 1
--- !u!1 &1000012094927670
GameObject:
  m_ObjectHideFlags: 1
  m_PrefabParentObject: {fileID: 0}
  m_PrefabInternal: {fileID: 100100000}
  serializedVersion: 5
  m_Component:
  - component: {fileID: 4000013937855624}
  m_Layer: 0
  m_Name: BackUpperLeg_L
  m_TagString: Untagged
  m_Icon: {fileID: 0}
  m_NavMeshLayer: 0
  m_StaticEditorFlags: 0
  m_IsActive: 1
--- !u!1 &1000012168647240
GameObject:
  m_ObjectHideFlags: 0
  m_PrefabParentObject: {fileID: 0}
  m_PrefabInternal: {fileID: 100100000}
  serializedVersion: 5
  m_Component:
  - component: {fileID: 4000013638323832}
  - component: {fileID: 137000012266579770}
  m_Layer: 0
  m_Name: Pig_A
  m_TagString: Untagged
  m_Icon: {fileID: 0}
  m_NavMeshLayer: 0
  m_StaticEditorFlags: 0
  m_IsActive: 1
--- !u!1 &1000012201373196
GameObject:
  m_ObjectHideFlags: 1
  m_PrefabParentObject: {fileID: 0}
  m_PrefabInternal: {fileID: 100100000}
  serializedVersion: 5
  m_Component:
  - component: {fileID: 4000010071031828}
  m_Layer: 0
  m_Name: FrontFoot_L
  m_TagString: Untagged
  m_Icon: {fileID: 0}
  m_NavMeshLayer: 0
  m_StaticEditorFlags: 0
  m_IsActive: 1
--- !u!1 &1000012246398200
GameObject:
  m_ObjectHideFlags: 1
  m_PrefabParentObject: {fileID: 0}
  m_PrefabInternal: {fileID: 100100000}
  serializedVersion: 5
  m_Component:
  - component: {fileID: 4000010704235750}
  m_Layer: 0
  m_Name: FrontFootIK_R
  m_TagString: Untagged
  m_Icon: {fileID: 0}
  m_NavMeshLayer: 0
  m_StaticEditorFlags: 0
  m_IsActive: 1
--- !u!1 &1000012429034748
GameObject:
  m_ObjectHideFlags: 1
  m_PrefabParentObject: {fileID: 0}
  m_PrefabInternal: {fileID: 100100000}
  serializedVersion: 5
  m_Component:
  - component: {fileID: 4000012931073426}
  m_Layer: 0
  m_Name: Head
  m_TagString: Untagged
  m_Icon: {fileID: 0}
  m_NavMeshLayer: 0
  m_StaticEditorFlags: 0
  m_IsActive: 1
--- !u!1 &1000012518688432
GameObject:
  m_ObjectHideFlags: 1
  m_PrefabParentObject: {fileID: 0}
  m_PrefabInternal: {fileID: 100100000}
  serializedVersion: 5
  m_Component:
  - component: {fileID: 4000011899995194}
  m_Layer: 0
  m_Name: BackUpperLeg_R
  m_TagString: Untagged
  m_Icon: {fileID: 0}
  m_NavMeshLayer: 0
  m_StaticEditorFlags: 0
  m_IsActive: 1
--- !u!1 &1000012574484974
GameObject:
  m_ObjectHideFlags: 1
  m_PrefabParentObject: {fileID: 0}
  m_PrefabInternal: {fileID: 100100000}
  serializedVersion: 5
  m_Component:
  - component: {fileID: 4000012535317076}
  m_Layer: 0
  m_Name: BackFootIK_R
  m_TagString: Untagged
  m_Icon: {fileID: 0}
  m_NavMeshLayer: 0
  m_StaticEditorFlags: 0
  m_IsActive: 1
--- !u!1 &1000012618257478
GameObject:
  m_ObjectHideFlags: 1
  m_PrefabParentObject: {fileID: 0}
  m_PrefabInternal: {fileID: 100100000}
  serializedVersion: 5
  m_Component:
  - component: {fileID: 4000013428037450}
  m_Layer: 0
  m_Name: Torso
  m_TagString: Untagged
  m_Icon: {fileID: 0}
  m_NavMeshLayer: 0
  m_StaticEditorFlags: 0
  m_IsActive: 1
--- !u!1 &1000012792563434
GameObject:
  m_ObjectHideFlags: 0
  m_PrefabParentObject: {fileID: 0}
  m_PrefabInternal: {fileID: 100100000}
  serializedVersion: 5
  m_Component:
  - component: {fileID: 4000011487132522}
  m_Layer: 0
  m_Name: PigArmature
  m_TagString: Untagged
  m_Icon: {fileID: 0}
  m_NavMeshLayer: 0
  m_StaticEditorFlags: 0
  m_IsActive: 1
--- !u!1 &1000013013610440
GameObject:
  m_ObjectHideFlags: 1
  m_PrefabParentObject: {fileID: 0}
  m_PrefabInternal: {fileID: 100100000}
  serializedVersion: 5
  m_Component:
  - component: {fileID: 4000011862061308}
  m_Layer: 0
  m_Name: BackLowerLeg_R
  m_TagString: Untagged
  m_Icon: {fileID: 0}
  m_NavMeshLayer: 0
  m_StaticEditorFlags: 0
  m_IsActive: 1
--- !u!1 &1000013525458598
GameObject:
  m_ObjectHideFlags: 1
  m_PrefabParentObject: {fileID: 0}
  m_PrefabInternal: {fileID: 100100000}
  serializedVersion: 5
  m_Component:
  - component: {fileID: 4000010571506740}
  m_Layer: 0
  m_Name: FrontLowerLeg_L
  m_TagString: Untagged
  m_Icon: {fileID: 0}
  m_NavMeshLayer: 0
  m_StaticEditorFlags: 0
  m_IsActive: 1
--- !u!1 &1000013819063092
GameObject:
  m_ObjectHideFlags: 1
  m_PrefabParentObject: {fileID: 0}
  m_PrefabInternal: {fileID: 100100000}
  serializedVersion: 5
  m_Component:
  - component: {fileID: 4000011167513902}
  m_Layer: 0
  m_Name: Pole_L
  m_TagString: Untagged
  m_Icon: {fileID: 0}
  m_NavMeshLayer: 0
  m_StaticEditorFlags: 0
  m_IsActive: 1
--- !u!1 &1000014094427538
GameObject:
  m_ObjectHideFlags: 1
  m_PrefabParentObject: {fileID: 0}
  m_PrefabInternal: {fileID: 100100000}
  serializedVersion: 5
  m_Component:
  - component: {fileID: 4000011702573138}
  m_Layer: 0
  m_Name: Ear_R
  m_TagString: Untagged
  m_Icon: {fileID: 0}
  m_NavMeshLayer: 0
  m_StaticEditorFlags: 0
  m_IsActive: 1
--- !u!4 &4000010071031828
Transform:
  m_ObjectHideFlags: 1
  m_PrefabParentObject: {fileID: 0}
  m_PrefabInternal: {fileID: 100100000}
  m_GameObject: {fileID: 1000012201373196}
  m_LocalRotation: {x: 0.83232254, y: -0.05909588, z: -0.044129454, w: 0.5493628}
  m_LocalPosition: {x: -0.000000024214385, y: 0.30729178, z: 0.000000050524246}
  m_LocalScale: {x: 1, y: 0.99999994, z: 1.0000001}
  m_Children: []
  m_Father: {fileID: 4000010571506740}
  m_RootOrder: 0
  m_LocalEulerAnglesHint: {x: 0, y: 0, z: 0}
--- !u!4 &4000010249316126
Transform:
  m_ObjectHideFlags: 1
  m_PrefabParentObject: {fileID: 0}
  m_PrefabInternal: {fileID: 100100000}
  m_GameObject: {fileID: 1000010243906188}
  m_LocalRotation: {x: 0.0000038901208, y: -0.02039378, z: 0.99979204, w: -0.00000011539692}
  m_LocalPosition: {x: -0.43676224, y: -0.5272599, z: 0.029019712}
  m_LocalScale: {x: 1, y: 0.9999997, z: 0.9998329}
  m_Children: []
  m_Father: {fileID: 4000011487132522}
  m_RootOrder: 2
  m_LocalEulerAnglesHint: {x: 0, y: 0, z: 0}
--- !u!4 &4000010571506740
Transform:
  m_ObjectHideFlags: 1
  m_PrefabParentObject: {fileID: 0}
  m_PrefabInternal: {fileID: 100100000}
  m_GameObject: {fileID: 1000013525458598}
  m_LocalRotation: {x: -0.16107486, y: -0.0064651147, z: 0.021746472, w: 0.9866814}
  m_LocalPosition: {x: -0.00000002980232, y: 0.4258859, z: 0.00000007823109}
  m_LocalScale: {x: 0.99999994, y: 1, z: 0.99999994}
  m_Children:
  - {fileID: 4000010071031828}
  m_Father: {fileID: 4000014219195088}
  m_RootOrder: 0
  m_LocalEulerAnglesHint: {x: 0, y: 0, z: 0}
--- !u!4 &4000010704235750
Transform:
  m_ObjectHideFlags: 1
  m_PrefabParentObject: {fileID: 0}
  m_PrefabInternal: {fileID: 100100000}
  m_GameObject: {fileID: 1000012246398200}
  m_LocalRotation: {x: -0.0000038901208, y: -0.02039378, z: 0.99979204, w: 0.00000011539692}
  m_LocalPosition: {x: 0.43676224, y: -0.5272599, z: 0.029019712}
  m_LocalScale: {x: 1, y: 0.9999997, z: 0.9998329}
  m_Children: []
  m_Father: {fileID: 4000011487132522}
  m_RootOrder: 3
  m_LocalEulerAnglesHint: {x: 0, y: 0, z: 0}
--- !u!4 &4000010880549978
Transform:
  m_ObjectHideFlags: 1
  m_PrefabParentObject: {fileID: 0}
  m_PrefabInternal: {fileID: 100100000}
  m_GameObject: {fileID: 1000011366554306}
  m_LocalRotation: {x: 0.994462, y: 0.0000015906306, z: 0.000014818997, w: -0.10509641}
  m_LocalPosition: {x: 0.0000128000565, y: -0.009868204, z: -0.42609066}
  m_LocalScale: {x: 1, y: 0.9999998, z: 0.99999654}
  m_Children: []
  m_Father: {fileID: 4000011269444480}
  m_RootOrder: 3
  m_LocalEulerAnglesHint: {x: 0, y: 0, z: 0}
--- !u!4 &4000011167513902
Transform:
  m_ObjectHideFlags: 1
  m_PrefabParentObject: {fileID: 0}
  m_PrefabInternal: {fileID: 100100000}
  m_GameObject: {fileID: 1000013819063092}
  m_LocalRotation: {x: 0.8936309, y: 0.0032797009, z: -0.44803828, w: -0.02597746}
  m_LocalPosition: {x: -0.42748964, y: 0.16041254, z: 0.3117058}
  m_LocalScale: {x: 1.0000046, y: 1, z: 1.0000387}
  m_Children: []
  m_Father: {fileID: 4000011487132522}
  m_RootOrder: 4
  m_LocalEulerAnglesHint: {x: 0, y: 0, z: 0}
--- !u!4 &4000011269444480
Transform:
  m_ObjectHideFlags: 1
  m_PrefabParentObject: {fileID: 0}
  m_PrefabInternal: {fileID: 100100000}
  m_GameObject: {fileID: 1000010262078532}
  m_LocalRotation: {x: 0.9972906, y: -0.0000011049732, z: 0.000014979951, w: -0.073562704}
  m_LocalPosition: {x: -0.0020697548, y: 1.3045188, z: 1.5808767}
  m_LocalScale: {x: 1, y: 1, z: 1.0000073}
  m_Children:
  - {fileID: 4000013937855624}
  - {fileID: 4000011899995194}
  - {fileID: 4000011377286194}
  - {fileID: 4000010880549978}
  m_Father: {fileID: 4000011487132522}
  m_RootOrder: 8
  m_LocalEulerAnglesHint: {x: 0, y: 0, z: 0}
--- !u!4 &4000011377286194
Transform:
  m_ObjectHideFlags: 1
  m_PrefabParentObject: {fileID: 0}
  m_PrefabInternal: {fileID: 100100000}
  m_GameObject: {fileID: 1000011420637990}
  m_LocalRotation: {x: 0.0007239978, y: 0.9977982, z: -0.066319786, w: 0.000022084609}
  m_LocalPosition: {x: -3.0831868e-10, y: 0.35745984, z: 0.00000008683416}
  m_LocalScale: {x: 1, y: 1.0000001, z: 0.9999999}
  m_Children:
  - {fileID: 4000013428037450}
  m_Father: {fileID: 4000011269444480}
  m_RootOrder: 2
  m_LocalEulerAnglesHint: {x: 0, y: 0, z: 0}
--- !u!4 &4000011487132522
Transform:
  m_ObjectHideFlags: 1
  m_PrefabParentObject: {fileID: 0}
  m_PrefabInternal: {fileID: 100100000}
  m_GameObject: {fileID: 1000012792563434}
  m_LocalRotation: {x: -0.7071068, y: 0, z: -0, w: 0.7071067}
  m_LocalPosition: {x: -0, y: 0, z: 0}
  m_LocalScale: {x: 1, y: 1, z: 1}
  m_Children:
  - {fileID: 4000012058395960}
  - {fileID: 4000012535317076}
  - {fileID: 4000010249316126}
  - {fileID: 4000010704235750}
  - {fileID: 4000011167513902}
  - {fileID: 4000012665771548}
  - {fileID: 4000012173476364}
  - {fileID: 4000011683163514}
  - {fileID: 4000011269444480}
  m_Father: {fileID: 4000013142340224}
  m_RootOrder: 1
  m_LocalEulerAnglesHint: {x: 0, y: 0, z: 0}
--- !u!4 &4000011683163514
Transform:
  m_ObjectHideFlags: 1
  m_PrefabParentObject: {fileID: 0}
  m_PrefabInternal: {fileID: 100100000}
  m_GameObject: {fileID: 1000010736039530}
  m_LocalRotation: {x: 0.89350885, y: 0.017677173, z: 0.44842488, w: 0.015639512}
  m_LocalPosition: {x: 0.42748964, y: 0.33553204, z: 0.29490468}
  m_LocalScale: {x: 1.0000085, y: 1.0000001, z: 1.0000507}
  m_Children: []
  m_Father: {fileID: 4000011487132522}
  m_RootOrder: 7
  m_LocalEulerAnglesHint: {x: 0, y: 0, z: 0}
--- !u!4 &4000011702573138
Transform:
  m_ObjectHideFlags: 1
  m_PrefabParentObject: {fileID: 0}
  m_PrefabInternal: {fileID: 100100000}
  m_GameObject: {fileID: 1000014094427538}
  m_LocalRotation: {x: 0.22299223, y: 0.4322429, z: 0.4589396, w: 0.7435153}
  m_LocalPosition: {x: -0.73407733, y: 0.7796516, z: 0.34950328}
  m_LocalScale: {x: 0.9999999, y: 0.99999976, z: 0.99999994}
  m_Children: []
  m_Father: {fileID: 4000012931073426}
  m_RootOrder: 1
  m_LocalEulerAnglesHint: {x: 0, y: 0, z: 0}
--- !u!4 &4000011862061308
Transform:
  m_ObjectHideFlags: 1
  m_PrefabParentObject: {fileID: 0}
  m_PrefabInternal: {fileID: 100100000}
  m_GameObject: {fileID: 1000013013610440}
  m_LocalRotation: {x: 0.046272825, y: -0.024825318, z: -0.008671366, w: 0.99858266}
  m_LocalPosition: {x: 0.00000004097819, y: 0.52035964, z: -0.0000000745058}
  m_LocalScale: {x: 1, y: 1, z: 1}
  m_Children:
  - {fileID: 4000012899687846}
  m_Father: {fileID: 4000011899995194}
  m_RootOrder: 0
  m_LocalEulerAnglesHint: {x: 0, y: 0, z: 0}
--- !u!4 &4000011899995194
Transform:
  m_ObjectHideFlags: 1
  m_PrefabParentObject: {fileID: 0}
  m_PrefabInternal: {fileID: 100100000}
  m_GameObject: {fileID: 1000012518688432}
  m_LocalRotation: {x: -0.12951654, y: 0.77726936, z: 0.612615, w: -0.061487027}
  m_LocalPosition: {x: 0.63202447, y: 0.57217723, z: 0.63282996}
  m_LocalScale: {x: 0.9999999, y: 0.99999964, z: 0.99999976}
  m_Children:
  - {fileID: 4000011862061308}
  m_Father: {fileID: 4000011269444480}
  m_RootOrder: 1
  m_LocalEulerAnglesHint: {x: 0, y: 0, z: 0}
--- !u!4 &4000012058395960
Transform:
  m_ObjectHideFlags: 1
  m_PrefabParentObject: {fileID: 0}
  m_PrefabInternal: {fileID: 100100000}
  m_GameObject: {fileID: 1000011510883598}
  m_LocalRotation: {x: -0.000016168506, y: -0.0035711706, z: 0.9999936, w: 0.000000017757522}
  m_LocalPosition: {x: -0.5096835, y: 0.7418044, z: 0.029835818}
  m_LocalScale: {x: 1, y: 1, z: 0.9998884}
  m_Children: []
  m_Father: {fileID: 4000011487132522}
  m_RootOrder: 0
  m_LocalEulerAnglesHint: {x: 0, y: 0, z: 0}
--- !u!4 &4000012173476364
Transform:
  m_ObjectHideFlags: 1
  m_PrefabParentObject: {fileID: 0}
  m_PrefabInternal: {fileID: 100100000}
  m_GameObject: {fileID: 1000012015534610}
  m_LocalRotation: {x: 0.89350885, y: -0.017677173, z: -0.44842488, w: 0.015639512}
  m_LocalPosition: {x: -0.42748964, y: 0.33553204, z: 0.29490468}
  m_LocalScale: {x: 1.0000085, y: 1.0000001, z: 1.0000507}
  m_Children: []
  m_Father: {fileID: 4000011487132522}
  m_RootOrder: 6
  m_LocalEulerAnglesHint: {x: 0, y: 0, z: 0}
--- !u!4 &4000012307490480
Transform:
  m_ObjectHideFlags: 1
  m_PrefabParentObject: {fileID: 0}
  m_PrefabInternal: {fileID: 100100000}
  m_GameObject: {fileID: 1000010299963472}
  m_LocalRotation: {x: 0.22299266, y: -0.43224373, z: -0.45893952, w: 0.7435147}
  m_LocalPosition: {x: 0.7340766, y: 0.7796516, z: 0.34950483}
  m_LocalScale: {x: 0.99999994, y: 0.9999999, z: 0.9999998}
  m_Children: []
  m_Father: {fileID: 4000012931073426}
  m_RootOrder: 0
  m_LocalEulerAnglesHint: {x: 0, y: 0, z: 0}
--- !u!4 &4000012409882776
Transform:
  m_ObjectHideFlags: 1
  m_PrefabParentObject: {fileID: 0}
  m_PrefabInternal: {fileID: 100100000}
  m_GameObject: {fileID: 1000011939132486}
  m_LocalRotation: {x: -0.73775315, y: -0.050627936, z: -0.016766066, w: 0.67296064}
  m_LocalPosition: {x: -0.5234291, y: 0.9676759, z: -0.76460475}
  m_LocalScale: {x: 0.9999999, y: 0.9999929, z: 0.9999998}
  m_Children:
  - {fileID: 4000013480054862}
  m_Father: {fileID: 4000013428037450}
  m_RootOrder: 1
  m_LocalEulerAnglesHint: {x: 0, y: 0, z: 0}
--- !u!4 &4000012535317076
Transform:
  m_ObjectHideFlags: 1
  m_PrefabParentObject: {fileID: 0}
  m_PrefabInternal: {fileID: 100100000}
  m_GameObject: {fileID: 1000012574484974}
  m_LocalRotation: {x: 0.000016168506, y: -0.0035711706, z: 0.9999936, w: -0.000000017757522}
  m_LocalPosition: {x: 0.5096835, y: 0.7418044, z: 0.029835818}
  m_LocalScale: {x: 1, y: 1, z: 0.9998884}
  m_Children: []
  m_Father: {fileID: 4000011487132522}
  m_RootOrder: 1
  m_LocalEulerAnglesHint: {x: 0, y: 0, z: 0}
--- !u!4 &4000012665771548
Transform:
  m_ObjectHideFlags: 1
  m_PrefabParentObject: {fileID: 0}
  m_PrefabInternal: {fileID: 100100000}
  m_GameObject: {fileID: 1000010974301484}
  m_LocalRotation: {x: 0.8936309, y: -0.0032797009, z: 0.44803828, w: -0.02597746}
  m_LocalPosition: {x: 0.42748964, y: 0.16041254, z: 0.3117058}
  m_LocalScale: {x: 1.0000046, y: 1, z: 1.0000387}
  m_Children: []
  m_Father: {fileID: 4000011487132522}
  m_RootOrder: 5
  m_LocalEulerAnglesHint: {x: 0, y: 0, z: 0}
--- !u!4 &4000012899687846
Transform:
  m_ObjectHideFlags: 1
  m_PrefabParentObject: {fileID: 0}
  m_PrefabInternal: {fileID: 100100000}
  m_GameObject: {fileID: 1000010701452500}
  m_LocalRotation: {x: 0.63445616, y: -0.02208671, z: 0.12554441, w: 0.76237535}
  m_LocalPosition: {x: -0.000000001862645, y: 0.33492544, z: -0.000000009778886}
  m_LocalScale: {x: 0.99999994, y: 0.9999999, z: 0.99999994}
  m_Children: []
  m_Father: {fileID: 4000011862061308}
  m_RootOrder: 0
  m_LocalEulerAnglesHint: {x: 0, y: 0, z: 0}
--- !u!4 &4000012931073426
Transform:
  m_ObjectHideFlags: 1
  m_PrefabParentObject: {fileID: 0}
  m_PrefabInternal: {fileID: 100100000}
  m_GameObject: {fileID: 1000012429034748}
  m_LocalRotation: {x: 0.16372721, y: -0.00010217095, z: -0.0004482855, w: 0.98650557}
  m_LocalPosition: {x: -4.3660183e-11, y: 1.1269728, z: 0.000000070780985}
  m_LocalScale: {x: 1, y: 0.9999991, z: 0.9999933}
  m_Children:
  - {fileID: 4000012307490480}
  - {fileID: 4000011702573138}
  m_Father: {fileID: 4000013428037450}
  m_RootOrder: 2
  m_LocalEulerAnglesHint: {x: 0, y: 0, z: 0}
--- !u!4 &4000012967515838
Transform:
  m_ObjectHideFlags: 1
  m_PrefabParentObject: {fileID: 0}
  m_PrefabInternal: {fileID: 100100000}
  m_GameObject: {fileID: 1000010366167854}
  m_LocalRotation: {x: 0.04628143, y: 0.024825288, z: 0.008673056, w: 0.99858224}
  m_LocalPosition: {x: -0.00000000745058, y: 0.5203596, z: -0.00000010430812}
  m_LocalScale: {x: 1, y: 0.99999994, z: 1}
  m_Children:
  - {fileID: 4000013873695656}
  m_Father: {fileID: 4000013937855624}
  m_RootOrder: 0
  m_LocalEulerAnglesHint: {x: 0, y: 0, z: 0}
--- !u!4 &4000013142340224
Transform:
  m_ObjectHideFlags: 1
  m_PrefabParentObject: {fileID: 0}
  m_PrefabInternal: {fileID: 100100000}
  m_GameObject: {fileID: 1000011618405778}
  m_LocalRotation: {x: 0, y: 0, z: 0, w: 1}
  m_LocalPosition: {x: 0, y: 0, z: 0}
  m_LocalScale: {x: 1, y: 1, z: 1}
  m_Children:
  - {fileID: 4000013638323832}
  - {fileID: 4000011487132522}
  m_Father: {fileID: 0}
  m_RootOrder: 0
  m_LocalEulerAnglesHint: {x: 0, y: 0, z: 0}
--- !u!4 &4000013428037450
Transform:
  m_ObjectHideFlags: 1
  m_PrefabParentObject: {fileID: 0}
  m_PrefabInternal: {fileID: 100100000}
  m_GameObject: {fileID: 1000012618257478}
  m_LocalRotation: {x: -0.0080808755, y: -0.0000034444113, z: -0.00026329057, w: 0.99996734}
  m_LocalPosition: {x: 1.7462297e-10, y: 0.71679366, z: 0.00000003430321}
  m_LocalScale: {x: 1.0000001, y: 1, z: 1.0000001}
  m_Children:
  - {fileID: 4000014219195088}
  - {fileID: 4000012409882776}
  - {fileID: 4000012931073426}
  m_Father: {fileID: 4000011377286194}
  m_RootOrder: 0
  m_LocalEulerAnglesHint: {x: 0, y: 0, z: 0}
--- !u!4 &4000013480054862
Transform:
  m_ObjectHideFlags: 1
  m_PrefabParentObject: {fileID: 0}
  m_PrefabInternal: {fileID: 100100000}
  m_GameObject: {fileID: 1000011276139960}
  m_LocalRotation: {x: -0.16107528, y: 0.006465116, z: -0.021746509, w: 0.98668134}
  m_LocalPosition: {x: -0.000000024214385, y: 0.42588592, z: 0.000000039115545}
  m_LocalScale: {x: 0.99999994, y: 1, z: 0.9999999}
  m_Children:
  - {fileID: 4000013540818662}
  m_Father: {fileID: 4000012409882776}
  m_RootOrder: 0
  m_LocalEulerAnglesHint: {x: 0, y: 0, z: 0}
--- !u!4 &4000013540818662
Transform:
  m_ObjectHideFlags: 1
  m_PrefabParentObject: {fileID: 0}
  m_PrefabInternal: {fileID: 100100000}
  m_GameObject: {fileID: 1000011885677166}
  m_LocalRotation: {x: 0.8323228, y: 0.05909577, z: 0.04412945, w: 0.5493625}
  m_LocalPosition: {x: 0.00000006798654, y: 0.30729178, z: 0.000000024912877}
  m_LocalScale: {x: 1.0000001, y: 1, z: 1}
  m_Children: []
  m_Father: {fileID: 4000013480054862}
  m_RootOrder: 0
  m_LocalEulerAnglesHint: {x: 0, y: 0, z: 0}
--- !u!4 &4000013638323832
Transform:
  m_ObjectHideFlags: 1
  m_PrefabParentObject: {fileID: 0}
  m_PrefabInternal: {fileID: 100100000}
  m_GameObject: {fileID: 1000012168647240}
  m_LocalRotation: {x: 0.7071068, y: 0, z: -0, w: 0.7071067}
  m_LocalPosition: {x: -0, y: 0, z: 0}
  m_LocalScale: {x: 0.01, y: 0.01, z: 0.01}
  m_Children: []
  m_Father: {fileID: 4000013142340224}
  m_RootOrder: 0
  m_LocalEulerAnglesHint: {x: 0, y: 0, z: 0}
--- !u!4 &4000013873695656
Transform:
  m_ObjectHideFlags: 1
  m_PrefabParentObject: {fileID: 0}
  m_PrefabInternal: {fileID: 100100000}
  m_GameObject: {fileID: 1000011316042914}
  m_LocalRotation: {x: 0.6344521, y: 0.022085302, z: -0.12554535, w: 0.7623786}
  m_LocalPosition: {x: -0.000000022817401, y: 0.33492532, z: -0.000000017695127}
  m_LocalScale: {x: 0.99999994, y: 1, z: 0.9999999}
  m_Children: []
  m_Father: {fileID: 4000012967515838}
  m_RootOrder: 0
  m_LocalEulerAnglesHint: {x: 0, y: 0, z: 0}
--- !u!4 &4000013937855624
Transform:
  m_ObjectHideFlags: 1
  m_PrefabParentObject: {fileID: 0}
  m_PrefabInternal: {fileID: 100100000}
  m_GameObject: {fileID: 1000012094927670}
  m_LocalRotation: {x: 0.12949811, y: 0.77726614, z: 0.6126208, w: 0.06150877}
  m_LocalPosition: {x: -0.62792295, y: 0.57217723, z: 0.63279206}
  m_LocalScale: {x: 1, y: 1, z: 0.9999999}
  m_Children:
  - {fileID: 4000012967515838}
  m_Father: {fileID: 4000011269444480}
  m_RootOrder: 0
  m_LocalEulerAnglesHint: {x: 0, y: 0, z: 0}
--- !u!4 &4000014219195088
Transform:
  m_ObjectHideFlags: 1
  m_PrefabParentObject: {fileID: 0}
  m_PrefabInternal: {fileID: 100100000}
  m_GameObject: {fileID: 1000010086255936}
  m_LocalRotation: {x: -0.7377074, y: 0.05126799, z: 0.016106963, w: 0.67297846}
  m_LocalPosition: {x: 0.5232212, y: 0.96671486, z: -0.7645465}
  m_LocalScale: {x: 0.99999964, y: 0.9999928, z: 0.9999998}
  m_Children:
  - {fileID: 4000010571506740}
  m_Father: {fileID: 4000013428037450}
  m_RootOrder: 0
  m_LocalEulerAnglesHint: {x: 0, y: 0, z: 0}
--- !u!95 &95000010832619978
Animator:
  serializedVersion: 3
  m_ObjectHideFlags: 1
  m_PrefabParentObject: {fileID: 0}
  m_PrefabInternal: {fileID: 100100000}
  m_GameObject: {fileID: 1000011618405778}
  m_Enabled: 1
  m_Avatar: {fileID: 9000000, guid: bd4fde4326ba21c49ad59e62955a9729, type: 3}
  m_Controller: {fileID: 9100000, guid: 389e9cad5c7f1724b95d53ca29342585, type: 2}
  m_CullingMode: 1
  m_UpdateMode: 0
  m_ApplyRootMotion: 0
  m_LinearVelocityBlending: 0
  m_WarningMessage: 
  m_HasTransformHierarchy: 1
  m_AllowConstantClipSamplingOptimization: 1
--- !u!114 &114000011401346842
MonoBehaviour:
  m_ObjectHideFlags: 1
  m_PrefabParentObject: {fileID: 0}
  m_PrefabInternal: {fileID: 100100000}
  m_GameObject: {fileID: 1000011618405778}
  m_Enabled: 1
  m_EditorHideFlags: 0
  m_Script: {fileID: 11500000, guid: c5688bf9553a49d49a7f25aa81bb91d1, type: 3}
  m_Name: 
  m_EditorClassIdentifier: 
--- !u!137 &137000012266579770
SkinnedMeshRenderer:
  m_ObjectHideFlags: 1
  m_PrefabParentObject: {fileID: 0}
  m_PrefabInternal: {fileID: 100100000}
  m_GameObject: {fileID: 1000012168647240}
  m_Enabled: 1
  m_CastShadows: 1
  m_ReceiveShadows: 1
  m_DynamicOccludee: 1
  m_MotionVectors: 1
  m_LightProbeUsage: 1
  m_ReflectionProbeUsage: 1
  m_Materials:
  - {fileID: 2100000, guid: 69d074581b74191418ca6c62df0e36bd, type: 2}
  m_StaticBatchInfo:
    firstSubMesh: 0
    subMeshCount: 0
  m_StaticBatchRoot: {fileID: 0}
  m_ProbeAnchor: {fileID: 0}
  m_LightProbeVolumeOverride: {fileID: 0}
  m_ScaleInLightmap: 1
  m_PreserveUVs: 0
  m_IgnoreNormalsForChartDetection: 0
  m_ImportantGI: 0
  m_StitchLightmapSeams: 0
  m_SelectedEditorRenderState: 3
  m_MinimumChartSize: 4
  m_AutoUVMaxDistance: 0.5
  m_AutoUVMaxAngle: 89
  m_LightmapParameters: {fileID: 0}
  m_SortingLayerID: 0
  m_SortingLayer: 0
  m_SortingOrder: 0
  serializedVersion: 2
  m_Quality: 0
  m_UpdateWhenOffscreen: 0
  m_SkinnedMotionVectors: 1
  m_Mesh: {fileID: 4300002, guid: bd4fde4326ba21c49ad59e62955a9729, type: 3}
  m_Bones:
  - {fileID: 4000011269444480}
  - {fileID: 4000011377286194}
  - {fileID: 4000013428037450}
  - {fileID: 4000012931073426}
  - {fileID: 4000012307490480}
  - {fileID: 4000011702573138}
  - {fileID: 4000014219195088}
  - {fileID: 4000010571506740}
  - {fileID: 4000010071031828}
  - {fileID: 4000012409882776}
  - {fileID: 4000013480054862}
  - {fileID: 4000013540818662}
  - {fileID: 4000010880549978}
  - {fileID: 4000013937855624}
  - {fileID: 4000012967515838}
  - {fileID: 4000013873695656}
  - {fileID: 4000011899995194}
  - {fileID: 4000011862061308}
  - {fileID: 4000012899687846}
  - {fileID: 4000010249316126}
  - {fileID: 4000010704235750}
  - {fileID: 4000011167513902}
  - {fileID: 4000012665771548}
  - {fileID: 4000012058395960}
  - {fileID: 4000012535317076}
  - {fileID: 4000012173476364}
  - {fileID: 4000011683163514}
  m_BlendShapeWeights: []
  m_RootBone: {fileID: 4000011269444480}
  m_AABB:
    m_Center: {x: 0.0021103024, y: 1.5768225, z: -0.043107986}
    m_Extent: {x: 1.3500583, y: 2.1540306, z: 1.5936155}
  m_DirtyAABB: 0
