[
  {
    "splineMeshPrefab" : "trackMesh_lvl1",
    "name": "Country",
    "previewImage" : "NotSure"
  },
  {
    "splineMeshPrefab" : "trackMesh_lvl2",
    "name": "Egypt",
    "price" : 1.99,
    "goldPrice" : 1500,
    "previewImage" : "EgyptLevelIcon"
  },
  {
    "splineMeshPrefab" : "trackMesh_lvl3",
    "name": "ThirdLevel",
    "price" : 2.99,
    "goldPrice" : 3500,
    "previewImage" : "fry"
  }
]
